# This file uses feet as units for non-parametric coordinates.

g default
v -0.707899 23.057377 -1.226442
v -0.707887 19.979782 -1.226383
v -1.226216 23.057377 -0.708120
v -1.226184 19.979782 -0.708139
v -1.417680 23.057377 -0.000004
v -1.417680 19.979782 0.000008
v -1.226224 23.057377 0.707863
v -1.226241 19.979782 0.707893
v -1.002299 19.979788 1.002089
v 1.002146 19.979788 1.002201
v 1.226333 23.057377 0.707952
v 1.226397 19.979782 0.707918
v 1.417493 23.057377 0.000031
v 1.417493 19.979782 -0.000013
v 1.226397 23.057377 -0.708061
v 1.226398 19.979782 -0.708084
v 0.708130 23.057377 -1.226351
v 0.708100 19.979782 -1.226408
v -0.000074 23.057377 -1.417734
v -0.000083 19.979782 -1.417725
v 1.002102 23.057375 1.002214
v -1.002319 23.057373 1.002064
v 1.002146 19.979795 1.951202
v 1.002102 23.057375 1.951202
v -1.002319 23.057375 1.951202
v -1.002299 19.979795 1.951202
v 7.761474 -0.000002 13.664271
v 7.761476 -0.000004 1.951198
v -7.761464 -0.000002 13.664277
v -7.761462 -0.000004 1.951206
v 9.068254 24.339148 16.033709
v 9.068253 24.339148 1.951200
v -9.068240 24.339148 16.033712
v -9.068242 24.339148 1.951204
v 7.854341 35.040527 2.612076
v -7.854333 35.040527 2.612076
v 8.883481 26.470516 16.092384
v 8.883476 26.470516 1.995602
v -8.883471 26.470516 1.995602
v -8.883465 26.470516 16.092388
v 9.893274 26.281067 1.260235
v 9.893278 26.281067 16.809875
v -9.893261 26.281067 16.809879
v -9.893266 26.281067 1.260237
v 9.893277 24.339148 16.809877
v 9.893275 24.339148 1.260233
v -9.893265 24.339148 1.260237
v -9.893262 24.339146 16.809879
v 8.883482 27.985535 16.092384
v 8.883476 27.985537 1.995602
v -8.883471 27.985537 1.995602
v -8.883464 27.985538 16.092388
v 6.604008 27.985537 16.092386
v -6.603992 27.985537 16.092386
v 6.604003 35.040527 3.764410
v -6.603997 35.040527 3.764410
v 6.604004 34.832794 10.816261
v 6.604004 34.348083 11.429079
v 6.604004 35.040527 10.063042
v 7.884435 34.834217 10.815218
v 7.854340 35.040527 10.063042
v 7.954659 34.352825 11.425602
v -7.884428 34.834217 10.815224
v -7.954650 34.352825 11.425608
v -7.854333 35.040527 10.063047
v -6.603996 34.832794 10.816265
v -6.603996 35.040527 10.063047
v -6.603996 34.348083 11.429083
v -6.603992 27.985538 15.668801
v 6.604009 27.985535 15.668799
v -6.603998 34.702866 3.764410
v 6.604002 34.702866 3.764410
v -6.603996 34.542747 10.663109
v -6.603998 34.736305 9.953331
v -6.603994 34.085270 11.239273
v 6.604004 34.542747 10.663105
v 6.604006 34.085266 11.239267
v 6.604002 34.736305 9.953327
v 0.001583 21.648094 -1.913492
v 0.231996 21.743736 -1.913504
v 0.327443 21.974495 -1.913483
v 0.231929 22.205269 -1.913504
v 0.001502 22.300880 -1.913481
v -0.228897 22.205269 -1.913492
v -0.324357 21.974495 -1.913483
v -0.228845 21.743706 -1.913483
v 0.437801 21.974495 -2.294323
v 0.309943 22.283409 -2.294323
v 0.001488 22.411400 -2.294323
v -0.306931 22.283409 -2.294323
v -0.434716 21.974495 -2.294323
v -0.306861 21.665550 -2.294323
v 0.001596 21.537560 -2.294323
v 0.310033 21.665596 -2.294323
v 0.579931 22.976448 -2.294323
v 1.003423 22.553017 -2.294323
v 1.003422 22.553032 -3.105677
v 0.579930 22.976463 -3.105677
v 0.001461 23.131401 -2.294323
v 0.001459 23.131416 -3.105677
v -0.576988 22.976357 -2.294323
v -0.576989 22.976372 -3.105677
v -1.155375 21.974403 -2.294323
v -1.000419 22.552864 -2.294323
v -1.000419 22.552879 -3.105677
v -1.155374 21.974403 -3.105677
v -0.576843 20.972511 -2.294323
v -1.000335 21.395943 -2.294323
v -1.000334 21.395958 -3.105677
v -0.576841 20.972527 -3.105677
v 0.001628 20.817558 -2.294323
v 0.001629 20.817574 -3.105677
v 0.580076 20.972603 -2.294323
v 0.580076 20.972618 -3.105677
v 1.158463 21.974556 -2.294323
v 1.003507 21.396095 -2.294323
v 1.003507 21.396111 -3.105677
v 1.158462 21.974586 -3.105677
v -0.231421 21.974495 -1.305714
v -0.163877 22.137428 -1.305714
v -0.161194 22.137474 -1.913492
v -0.228608 21.974495 -1.913485
v -0.000529 22.204781 -1.305714
v 0.001514 22.204994 -1.913485
v 0.161859 22.137428 -1.305714
v 0.164242 22.137474 -1.913500
v 0.229350 21.974495 -1.305714
v 0.231695 21.974495 -1.913485
v 0.161866 21.811562 -1.305714
v 0.164290 21.811531 -1.913500
v -0.000519 21.744194 -1.305714
v 0.001572 21.743996 -1.913492
v -0.163872 21.811562 -1.305714
v -0.161157 21.811516 -1.913485
vt 0.767542 0.685264
vt 0.767542 0.654519
vt 0.774865 0.685264
vt 0.774865 0.654519
vt 0.782193 0.685264
vt 0.782194 0.654519
vt 0.789519 0.685264
vt 0.789520 0.654519
vt 0.793213 0.685264
vt 0.793213 0.654519
vt 0.727217 0.685264
vt 0.727217 0.654519
vt 0.730913 0.685264
vt 0.730914 0.654519
vt 0.738239 0.685264
vt 0.738239 0.654519
vt 0.745566 0.685264
vt 0.745566 0.654519
vt 0.752888 0.685264
vt 0.752889 0.654519
vt 0.725033 0.717168
vt 0.722793 0.714229
vt 0.720883 0.707157
vt 0.722792 0.700083
vt 0.727969 0.694905
vt 0.735044 0.692993
vt 0.742116 0.694904
vt 0.747294 0.700082
vt 0.749207 0.707156
vt 0.747294 0.714228
vt 0.745057 0.717167
vt 0.717737 0.685264
vt 0.760217 0.685264
vt 0.760217 0.654519
vt 0.717737 0.654519
vt 0.802695 0.685264
vt 0.786247 0.702880
vt 0.788484 0.705819
vt 0.790397 0.712891
vt 0.788484 0.719965
vt 0.783306 0.725143
vt 0.776235 0.727054
vt 0.769160 0.725143
vt 0.763982 0.719965
vt 0.762073 0.712891
vt 0.763982 0.705819
vt 0.766222 0.702879
vt 0.802695 0.654519
vt 0.725033 0.726649
vt 0.766222 0.693398
vt 0.745057 0.726649
vt 0.786247 0.693398
vt 0.561029 0.988792
vt 0.379843 0.988792
vt 0.392898 0.745641
vt 0.547974 0.745641
vt 0.192369 0.710294
vt 0.011183 0.710294
vt 0.024238 0.465994
vt 0.179314 0.465994
vt 0.688546 0.421986
vt 0.688546 0.406850
vt 0.851332 0.603728
vt 0.866040 0.406850
vt 0.866040 0.421986
vt 0.709757 0.603728
vt 0.702421 0.593489
vt 0.858844 0.593489
vt 0.709756 0.782228
vt 0.851332 0.782228
vt 0.858844 0.792467
vt 0.702421 0.792467
vt 0.762633 0.108671
vt 0.762633 0.264014
vt 0.336199 0.736462
vt 0.698827 0.492734
vt 0.855759 0.492734
vt 0.195513 0.736462
vt 0.564963 0.264014
vt 0.564964 0.108671
vt 0.603819 0.093200
vt 0.735769 0.093201
vt 0.250812 0.083646
vt 0.327656 0.083646
vt 0.327656 0.086887
vt 0.219185 0.492960
vt 0.336200 0.492961
vt 0.373065 0.988307
vt 0.232379 0.988307
vt 0.232379 0.744806
vt 0.349394 0.744806
vt 0.250812 0.086887
vt 0.335221 0.083646
vt 0.335221 0.086887
vt 0.342772 0.083646
vt 0.342772 0.086887
vt 0.735769 0.096575
vt 0.603819 0.096574
vt 0.404816 0.083646
vt 0.404816 0.086887
vt 0.165186 0.103317
vt 0.103142 0.103317
vt 0.103142 0.100076
vt 0.165186 0.100076
vt 0.218555 0.368499
vt 0.373631 0.368499
vt 0.373631 0.485514
vt 0.218555 0.485514
vt 0.708088 0.799832
vt 0.720579 0.811343
vt 0.720584 0.874267
vt 0.708093 0.874268
vt 0.166526 0.437367
vt 0.166526 0.456767
vt 0.011183 0.456767
vt 0.011183 0.437367
vt 0.166527 0.429117
vt 0.011183 0.429117
vt 0.011183 0.409717
vt 0.166527 0.409717
vt 0.697813 0.968689
vt 0.720585 0.968689
vt 0.697813 0.983824
vt 0.707091 0.889824
vt 0.720585 0.889881
vt 0.865020 0.799831
vt 0.852529 0.811343
vt 0.875307 0.968689
vt 0.875307 0.983824
vt 0.852535 0.968689
vt 0.866028 0.889823
vt 0.852535 0.889881
vt 0.707792 0.882059
vt 0.720584 0.882074
vt 0.852535 0.882075
vt 0.865327 0.882058
vt 0.852534 0.874268
vt 0.865025 0.874267
vt 0.838027 0.500658
vt 0.838026 0.515793
vt 0.697197 0.515786
vt 0.697198 0.500650
vt 0.681961 0.421592
vt 0.541133 0.421599
vt 0.541132 0.406464
vt 0.681961 0.406456
vt 0.831863 0.587019
vt 0.757427 0.587015
vt 0.749913 0.584932
vt 0.743816 0.580071
vt 0.635343 0.485877
vt 0.629245 0.490738
vt 0.621731 0.492821
vt 0.547295 0.492825
vt 0.208853 0.354418
vt 0.208853 0.373818
vt 0.011183 0.373818
vt 0.011183 0.354418
vt 0.011183 0.402063
vt 0.011183 0.382663
vt 0.208853 0.382663
vt 0.208853 0.402063
vt 0.457331 0.486347
vt 0.382021 0.486347
vt 0.382021 0.354397
vt 0.457331 0.354397
vt 0.472030 0.486347
vt 0.472030 0.354397
vt 0.533859 0.354397
vt 0.533859 0.486347
vt 0.464680 0.354397
vt 0.464680 0.486347
vt 0.906244 0.188678
vt 0.906244 0.056726
vt 0.095591 0.103317
vt 0.095591 0.100076
vt 0.088027 0.103317
vt 0.088027 0.100076
vt 0.011183 0.103317
vt 0.011183 0.100076
vt 0.910476 0.188678
vt 0.910476 0.056726
vt 0.895847 0.395146
vt 0.899102 0.396497
vt 0.900451 0.399757
vt 0.899102 0.403017
vt 0.895847 0.404368
vt 0.892592 0.403017
vt 0.891244 0.399757
vt 0.892592 0.396497
vt 0.827639 0.945797
vt 0.828465 0.943767
vt 0.834157 0.943734
vt 0.831687 0.949800
vt 0.825623 0.946647
vt 0.825657 0.952340
vt 0.823599 0.945822
vt 0.819598 0.949872
vt 0.822749 0.943803
vt 0.817057 0.943836
vt 0.823576 0.941772
vt 0.819527 0.937770
vt 0.825591 0.940922
vt 0.825557 0.935229
vt 0.827616 0.941748
vt 0.831617 0.937698
vt 0.760876 0.644517
vt 0.752223 0.644517
vt 0.752223 0.632794
vt 0.760876 0.632794
vt 0.769528 0.644517
vt 0.769528 0.632794
vt 0.778180 0.644517
vt 0.778180 0.632794
vt 0.795486 0.644517
vt 0.786833 0.644517
vt 0.786833 0.632794
vt 0.795486 0.632794
vt 0.812792 0.644517
vt 0.804139 0.644517
vt 0.804138 0.632794
vt 0.812792 0.632794
vt 0.821445 0.644517
vt 0.821445 0.632794
vt 0.726265 0.644518
vt 0.717612 0.644518
vt 0.717612 0.632794
vt 0.726265 0.632794
vt 0.743570 0.644518
vt 0.734918 0.644518
vt 0.734918 0.632794
vt 0.743571 0.632794
vt 0.783127 0.828893
vt 0.789333 0.835099
vt 0.791604 0.843576
vt 0.789333 0.852053
vt 0.783127 0.858258
vt 0.774651 0.860529
vt 0.774651 0.826622
vt 0.766174 0.858258
vt 0.759969 0.852053
vt 0.757697 0.843576
vt 0.759969 0.835099
vt 0.766174 0.828894
vt 0.484709 0.022565
vt 0.482228 0.022564
vt 0.482205 0.013977
vt 0.484709 0.013978
vt 0.479737 0.022564
vt 0.479710 0.013977
vt 0.477248 0.022564
vt 0.477227 0.013977
vt 0.474746 0.022563
vt 0.474746 0.013976
vt 0.472243 0.022564
vt 0.472265 0.013977
vt 0.469754 0.022564
vt 0.469781 0.013977
vt 0.489680 0.022564
vt 0.487189 0.022564
vt 0.487213 0.013977
vt 0.489708 0.013977
vt 0.732536 0.873484
vt 0.738727 0.867292
vt 0.747185 0.865027
vt 0.747185 0.898856
vt 0.738727 0.896589
vt 0.732536 0.890398
vt 0.730270 0.881941
vt 0.761833 0.890399
vt 0.755642 0.896590
vt 0.755642 0.867293
vt 0.761833 0.873484
vt 0.764099 0.881941
vn -0.500935 -0.000011 -0.865485
vn -0.000007 -0.000003 -1.000000
vn -0.000073 -0.000002 -1.000000
vn -0.000073 -0.000002 -1.000000
vn -0.500944 -0.000013 -0.865480
vn -0.500935 -0.000011 -0.865485
vn -0.500944 -0.000013 -0.865480
vn -0.865437 -0.000003 -0.501018
vn -0.865457 -0.000012 -0.500983
vn -0.865457 -0.000012 -0.500983
vn -0.500935 -0.000011 -0.865485
vn -0.500944 -0.000013 -0.865480
vn -0.865437 -0.000003 -0.501018
vn -1.000000 0.000003 0.000012
vn -1.000000 -0.000003 0.000036
vn -1.000000 -0.000003 0.000036
vn -0.865457 -0.000012 -0.500983
vn -0.865437 -0.000003 -0.501018
vn -1.000000 0.000003 0.000012
vn -0.897216 0.000004 0.441591
vn -0.897228 0.000006 0.441567
vn -0.897228 0.000006 0.441567
vn -1.000000 -0.000003 0.000036
vn -1.000000 0.000003 0.000012
vn -0.897216 0.000004 0.441591
vn -1.000000 -0.000006 0.000000
vn -1.000000 -0.000006 0.000000
vn -1.000000 -0.000006 0.000000
vn -0.897228 0.000006 0.441567
vn -0.897216 0.000004 0.441591
vn 1.000000 0.000014 -0.000000
vn 0.897201 0.000004 0.441622
vn 0.897184 0.000013 0.441657
vn 0.897184 0.000013 0.441657
vn 1.000000 0.000014 -0.000000
vn 1.000000 0.000014 -0.000000
vn 0.897201 0.000004 0.441622
vn 1.000000 -0.000001 0.000024
vn 1.000000 0.000009 0.000068
vn 1.000000 0.000009 0.000068
vn 0.897184 0.000013 0.441657
vn 0.897201 0.000004 0.441622
vn 1.000000 -0.000001 0.000024
vn 0.865580 0.000004 -0.500771
vn 0.865582 0.000005 -0.500767
vn 0.865582 0.000005 -0.500767
vn 1.000000 0.000009 0.000068
vn 1.000000 -0.000001 0.000024
vn 0.865580 0.000004 -0.500771
vn 0.500897 0.000011 -0.865507
vn 0.500930 0.000003 -0.865488
vn 0.500930 0.000003 -0.865488
vn 0.865582 0.000005 -0.500767
vn 0.865580 0.000004 -0.500771
vn 0.500930 0.000003 -0.865488
vn 0.500897 0.000011 -0.865507
vn -0.000073 -0.000002 -1.000000
vn -0.000073 -0.000002 -1.000000
vn -0.000007 -0.000003 -1.000000
vn 0.500930 0.000003 -0.865488
vn -0.000001 1.000000 0.000000
vn -0.000013 1.000000 -0.000004
vn -0.000002 1.000000 0.000001
vn -0.000002 1.000000 0.000001
vn 0.000000 1.000000 0.000000
vn 0.000000 1.000000 0.000000
vn -0.000002 1.000000 0.000001
vn 0.000000 1.000000 0.000000
vn 0.000000 1.000000 0.000000
vn -0.000001 1.000000 0.000000
vn -0.000002 1.000000 0.000001
vn 0.000000 1.000000 0.000000
vn 0.000000 1.000000 0.000000
vn 0.000000 1.000000 0.000000
vn 0.000001 1.000000 0.000001
vn 0.000000 1.000000 0.000000
vn 0.000000 1.000000 0.000000
vn 0.000001 1.000000 0.000001
vn -0.000001 1.000000 0.000000
vn 0.000000 1.000000 0.000000
vn 0.000001 1.000000 0.000001
vn 0.000001 1.000000 0.000001
vn -0.000001 1.000000 0.000000
vn 0.000001 1.000000 0.000001
vn 0.000001 1.000000 0.000001
vn 0.000001 1.000000 0.000001
vn 0.000013 1.000000 -0.000004
vn -0.000007 -1.000000 0.000002
vn -0.000040 -1.000000 -0.000011
vn -0.000003 -1.000000 0.000004
vn 0.000003 -1.000000 0.000004
vn 0.000040 -1.000000 -0.000011
vn 0.000007 -1.000000 0.000002
vn 0.000007 -1.000000 0.000002
vn 0.000000 -1.000000 -0.000000
vn 0.000001 -1.000000 0.000002
vn 0.000003 -1.000000 0.000004
vn 0.000007 -1.000000 0.000002
vn 0.000001 -1.000000 0.000002
vn -0.000003 -1.000000 0.000004
vn 0.000003 -1.000000 0.000004
vn 0.000001 -1.000000 0.000002
vn 0.000001 -1.000000 0.000002
vn 0.000000 -1.000000 -0.000000
vn -0.000001 -1.000000 0.000002
vn -0.000003 -1.000000 0.000004
vn 0.000001 -1.000000 0.000002
vn -0.000001 -1.000000 0.000002
vn -0.000007 -1.000000 0.000002
vn -0.000003 -1.000000 0.000004
vn -0.000001 -1.000000 0.000002
vn -0.000007 -1.000000 0.000002
vn -0.000001 -1.000000 0.000002
vn 0.000000 -1.000000 -0.000000
vn 1.000000 0.000014 -0.000000
vn 1.000000 0.000014 -0.000000
vn 1.000000 0.000014 -0.000000
vn 1.000000 0.000014 -0.000000
vn 1.000000 0.000014 -0.000000
vn 1.000000 0.000014 -0.000000
vn 0.000001 1.000000 0.000001
vn 0.000000 1.000000 0.000000
vn 0.000000 1.000000 0.000000
vn 0.000000 1.000000 0.000000
vn -0.000001 1.000000 0.000000
vn 0.000001 1.000000 0.000001
vn -1.000000 -0.000006 0.000000
vn -1.000000 -0.000006 0.000000
vn -1.000000 -0.000006 0.000000
vn -1.000000 -0.000006 0.000000
vn -1.000000 -0.000006 0.000000
vn -1.000000 -0.000006 0.000000
vn -0.000003 -1.000000 0.000004
vn 0.000000 -1.000000 0.000008
vn -0.000000 -1.000000 0.000008
vn -0.000000 -1.000000 0.000008
vn 0.000003 -1.000000 0.000004
vn -0.000003 -1.000000 0.000004
vn 0.000000 -1.000000 0.000000
vn 0.000000 -1.000000 0.000000
vn 0.000000 -1.000000 0.000000
vn 0.000000 -1.000000 0.000000
vn 0.000000 -1.000000 0.000000
vn 0.000000 -1.000000 0.000000
vn 0.000000 1.000000 0.000000
vn 0.000000 1.000000 0.000000
vn 0.000000 1.000000 0.000000
vn 0.000000 1.000000 0.000000
vn 0.000000 1.000000 0.000000
vn 0.000000 1.000000 0.000000
vn 0.998562 -0.053613 -0.000000
vn 0.998562 -0.053613 0.000000
vn 0.998562 -0.053613 0.000000
vn 0.998562 -0.053613 0.000000
vn 0.998562 -0.053613 -0.000000
vn 0.998562 -0.053613 -0.000000
vn -0.000000 -0.000000 -1.000000
vn -0.000001 0.000000 -1.000000
vn -0.000000 0.000000 -1.000000
vn -0.000000 0.000000 -1.000000
vn -0.000000 -0.000000 -1.000000
vn -0.000000 -0.000000 -1.000000
vn -0.998562 -0.053613 0.000000
vn -0.998562 -0.053613 -0.000000
vn -0.998562 -0.053613 -0.000000
vn -0.998562 -0.053613 -0.000000
vn -0.998562 -0.053613 0.000000
vn -0.998562 -0.053613 0.000000
vn 0.000000 -0.096893 0.995295
vn 0.000000 -0.096893 0.995295
vn 0.000000 -0.096893 0.995295
vn 0.000000 -0.096893 0.995295
vn 0.000000 -0.096893 0.995295
vn 0.000000 -0.096893 0.995295
vn 1.000000 0.000000 -0.000000
vn 1.000000 0.000000 -0.000000
vn 1.000000 -0.000000 -0.000000
vn 1.000000 -0.000000 -0.000000
vn 1.000000 -0.000000 -0.000000
vn 1.000000 0.000000 -0.000000
vn -1.000000 0.000000 0.000000
vn -1.000000 0.000000 0.000000
vn -1.000000 -0.000000 0.000000
vn -1.000000 -0.000000 0.000000
vn -1.000000 -0.000000 0.000000
vn -1.000000 0.000000 0.000000
vn 1.000000 -0.000000 -0.000000
vn 0.997525 0.070320 -0.000000
vn 0.998525 0.054293 -0.000000
vn 0.998525 0.054293 -0.000000
vn 1.000000 -0.000001 -0.000000
vn 1.000000 -0.000000 -0.000000
vn -0.997525 0.070320 0.000000
vn -1.000000 -0.000000 0.000000
vn -1.000000 0.000001 0.000000
vn -1.000000 0.000001 0.000000
vn -0.998525 0.054294 0.000000
vn -0.997525 0.070320 0.000000
vn 0.000001 0.591153 0.806560
vn 0.000001 0.591153 0.806560
vn 0.000001 -0.000000 1.000000
vn 0.087258 0.987068 -0.134473
vn 0.086839 0.986578 0.138283
vn 0.112471 0.988336 0.102672
vn 0.112471 0.988336 0.102672
vn 0.111121 0.988550 -0.102086
vn 0.087258 0.987068 -0.134473
vn -0.086839 0.986578 0.138283
vn -0.087258 0.987068 -0.134473
vn -0.111121 0.988550 -0.102086
vn -0.111121 0.988550 -0.102086
vn -0.112471 0.988336 0.102672
vn -0.086839 0.986578 0.138283
vn 0.997525 0.070320 -0.000000
vn 0.989527 0.144346 0.000000
vn 0.989527 0.144346 -0.000000
vn 0.989527 0.144346 -0.000000
vn 0.989527 0.144349 0.000001
vn 0.989527 0.144346 -0.000000
vn 0.989527 0.144346 -0.000000
vn 0.989527 0.144346 -0.000000
vn 0.998525 0.054293 -0.000000
vn 0.997525 0.070320 -0.000000
vn 0.989527 0.144346 -0.000000
vn 0.998525 0.054293 -0.000000
vn -0.989527 0.144346 0.000000
vn -0.989527 0.144346 0.000000
vn -0.997525 0.070320 0.000000
vn -0.989527 0.144346 0.000000
vn -0.997525 0.070320 0.000000
vn -0.998525 0.054294 0.000000
vn -0.989527 0.144345 -0.000000
vn -0.989527 0.144346 0.000000
vn -0.998525 0.054294 0.000000
vn -0.989528 0.144344 -0.000002
vn -0.989527 0.144345 -0.000000
vn -0.998525 0.054294 0.000000
vn 0.000001 0.591153 0.806560
vn 0.000001 0.591153 0.806560
vn 0.000001 0.591153 0.806560
vn 0.000001 0.591153 0.806560
vn 0.000001 0.591153 0.806560
vn 0.000001 0.591153 0.806560
vn 0.000000 1.000000 0.000000
vn 0.000000 1.000000 0.000000
vn 0.000000 1.000000 0.000000
vn 0.000000 1.000000 0.000000
vn 0.000000 1.000000 0.000000
vn 0.000000 1.000000 0.000000
vn -0.000000 0.000001 -1.000000
vn -0.000000 0.000000 -1.000000
vn -0.000000 0.000001 -1.000000
vn -0.000000 0.000001 -1.000000
vn -0.000000 0.000001 -1.000000
vn -0.000000 0.000001 -1.000000
vn 0.000000 0.000001 1.000000
vn 0.000000 0.000001 1.000000
vn 0.000000 0.000000 1.000000
vn 0.000000 0.000000 1.000000
vn 0.000000 -0.000000 1.000000
vn 0.000000 0.000001 1.000000
vn 0.000000 0.000000 -1.000000
vn 0.000000 0.000000 -1.000000
vn 0.000000 0.041469 -0.999140
vn 0.000000 0.041469 -0.999140
vn -0.000000 0.041468 -0.999140
vn 0.000000 0.000000 -1.000000
vn 0.000000 0.591152 0.806560
vn 0.000001 0.000000 1.000000
vn 0.000000 0.591152 0.806560
vn -0.086839 0.986578 0.138283
vn -0.112471 0.988336 0.102672
vn 0.112471 0.988336 0.102672
vn 0.112471 0.988336 0.102672
vn 0.086839 0.986578 0.138283
vn -0.086839 0.986578 0.138283
vn 0.111121 0.988550 -0.102086
vn -0.111121 0.988550 -0.102086
vn -0.087258 0.987068 -0.134473
vn -0.087258 0.987068 -0.134473
vn 0.087258 0.987068 -0.134473
vn 0.111121 0.988550 -0.102086
vn -0.000000 0.041468 -0.999140
vn 0.000000 0.041469 -0.999140
vn -0.000000 0.087050 -0.996204
vn -0.000000 0.087050 -0.996204
vn -0.000000 0.087049 -0.996204
vn -0.000000 0.041468 -0.999140
vn 0.000000 0.591152 0.806560
vn 0.000000 0.591152 0.806560
vn 0.000000 0.591152 0.806560
vn 0.000000 0.591152 0.806560
vn 0.000000 0.591152 0.806560
vn 0.000000 0.591152 0.806560
vn 0.000000 -1.000000 -0.000000
vn 0.000000 -1.000000 -0.000000
vn 0.000000 -1.000000 -0.000000
vn 0.000000 -1.000000 -0.000000
vn 0.000000 -1.000000 -0.000000
vn 0.000000 -1.000000 -0.000000
vn 0.000001 0.591153 0.806560
vn 0.000001 0.591153 0.806560
vn -0.000896 0.888808 0.458280
vn -0.000896 0.888808 0.458280
vn -0.000342 0.891991 0.452052
vn 0.000001 0.591153 0.806560
vn 0.000000 0.591152 0.806560
vn 0.000000 0.591152 0.806560
vn 0.000893 0.891984 0.452065
vn 0.000893 0.891984 0.452065
vn 0.000345 0.888825 0.458248
vn 0.000000 0.591152 0.806560
vn 0.000000 1.000000 0.000000
vn 0.000000 1.000000 0.000000
vn -0.000342 0.891991 0.452052
vn -0.000342 0.891991 0.452052
vn -0.000896 0.888808 0.458280
vn 0.000000 1.000000 0.000000
vn 0.000000 1.000000 0.000000
vn 0.000000 1.000000 0.000000
vn 0.000345 0.888825 0.458248
vn 0.000345 0.888825 0.458248
vn 0.000893 0.891984 0.452065
vn 0.000000 1.000000 0.000000
vn 0.000000 0.587596 0.809155
vn 0.000000 0.691743 0.722144
vn 0.000000 0.691745 0.722142
vn 0.000000 0.691745 0.722142
vn 0.000000 0.587595 0.809155
vn 0.000000 0.587596 0.809155
vn -0.000000 0.999985 -0.005403
vn 0.000000 0.999985 -0.005403
vn 0.000000 0.991508 0.130043
vn 0.000000 0.991508 0.130043
vn 0.000000 0.991508 0.130044
vn -0.000000 0.999985 -0.005403
vn 0.000000 0.892177 0.451686
vn 0.000000 0.892178 0.451684
vn 0.000000 0.691745 0.722142
vn 0.000000 0.691745 0.722142
vn 0.000000 0.691743 0.722144
vn 0.000000 0.892177 0.451686
vn 0.000000 0.892178 0.451684
vn 0.000000 0.892177 0.451686
vn 0.000000 0.991508 0.130044
vn 0.000000 0.991508 0.130044
vn 0.000000 0.991508 0.130043
vn 0.000000 0.892178 0.451684
vn 0.000001 -0.000000 1.000000
vn 0.000001 0.591153 0.806560
vn 0.000000 0.591152 0.806560
vn 0.000000 0.591152 0.806560
vn 0.000001 0.000000 1.000000
vn 0.000001 -0.000000 1.000000
vn 0.000000 1.000000 0.000000
vn 0.000000 1.000000 0.000000
vn 0.000000 1.000000 0.000000
vn 0.000000 1.000000 0.000000
vn 0.000000 1.000000 0.000000
vn 0.000000 1.000000 0.000000
vn 0.000000 1.000000 0.000000
vn 0.000000 1.000000 0.000000
vn 0.000000 1.000000 0.000000
vn 0.000000 1.000000 0.000000
vn 0.000000 1.000000 0.000000
vn 0.000000 1.000000 0.000000
vn -1.000000 -0.000001 -0.000001
vn -1.000000 -0.000004 -0.000002
vn -1.000000 -0.000005 -0.000003
vn -1.000000 -0.000005 -0.000003
vn -1.000000 -0.000001 -0.000001
vn -1.000000 -0.000001 -0.000001
vn -1.000000 -0.000004 -0.000002
vn -1.000000 0.000000 0.000001
vn -1.000000 -0.000002 0.000001
vn -1.000000 -0.000002 0.000001
vn -1.000000 -0.000005 -0.000003
vn -1.000000 -0.000004 -0.000002
vn -1.000000 0.000000 0.000001
vn -1.000000 0.000006 0.000001
vn -1.000000 0.000005 0.000001
vn -1.000000 0.000005 0.000001
vn -1.000000 -0.000002 0.000001
vn -1.000000 0.000000 0.000001
vn -1.000000 0.000006 0.000001
vn -1.000000 0.000003 0.000000
vn -1.000000 0.000003 0.000000
vn -1.000000 0.000003 0.000000
vn -1.000000 0.000005 0.000001
vn -1.000000 0.000006 0.000001
vn 0.000000 -0.000000 1.000000
vn 0.000000 -0.000000 1.000000
vn 0.000000 -0.000000 1.000000
vn 0.000000 -0.000000 1.000000
vn 0.000000 -0.000000 1.000000
vn 0.000000 -0.000000 1.000000
vn 1.000000 -0.000003 0.000000
vn 1.000000 -0.000005 -0.000002
vn 1.000000 -0.000006 -0.000002
vn 1.000000 -0.000006 -0.000002
vn 1.000000 -0.000003 0.000000
vn 1.000000 -0.000003 0.000000
vn 1.000000 -0.000005 -0.000002
vn 1.000000 0.000001 -0.000001
vn 1.000000 0.000000 -0.000002
vn 1.000000 0.000000 -0.000002
vn 1.000000 -0.000006 -0.000002
vn 1.000000 -0.000005 -0.000002
vn 1.000000 0.000001 -0.000001
vn 1.000000 0.000004 0.000004
vn 1.000000 0.000004 0.000003
vn 1.000000 0.000004 0.000003
vn 1.000000 0.000000 -0.000002
vn 1.000000 0.000001 -0.000001
vn 1.000000 0.000004 0.000004
vn 1.000000 0.000001 0.000001
vn 1.000000 0.000001 0.000001
vn 1.000000 0.000001 0.000001
vn 1.000000 0.000004 0.000003
vn 1.000000 0.000004 0.000004
vn -0.000026 -0.000028 1.000000
vn 0.000161 0.000158 1.000000
vn 0.000018 0.000023 1.000000
vn 0.000018 0.000023 1.000000
vn 0.000046 -0.000018 1.000000
vn 0.000014 -0.000033 1.000000
vn -0.000026 -0.000028 1.000000
vn 0.000018 0.000023 1.000000
vn 0.000014 -0.000033 1.000000
vn 0.000018 0.000023 1.000000
vn -0.000085 0.000084 1.000000
vn -0.000012 0.000012 1.000000
vn 0.000018 0.000023 1.000000
vn -0.000012 0.000012 1.000000
vn 0.000026 -0.000013 1.000000
vn 0.000018 0.000023 1.000000
vn 0.000026 -0.000013 1.000000
vn 0.000046 -0.000018 1.000000
vn 0.960486 0.000107 0.278327
vn 0.679389 0.678884 0.278475
vn 0.679506 0.678766 0.278474
vn 0.679506 0.678766 0.278474
vn 0.960486 0.000122 0.278329
vn 0.960486 0.000107 0.278327
vn 0.679389 0.678884 0.278475
vn -0.000028 0.960378 0.278701
vn -0.000016 0.960377 0.278704
vn -0.000016 0.960377 0.278704
vn 0.679506 0.678766 0.278474
vn 0.679389 0.678884 0.278475
vn -0.000028 0.960378 0.278701
vn -0.679464 0.678798 0.278502
vn -0.679579 0.678682 0.278502
vn -0.679579 0.678682 0.278502
vn -0.000016 0.960377 0.278704
vn -0.000028 0.960378 0.278701
vn -0.679464 0.678798 0.278502
vn -0.960486 -0.000072 0.278327
vn -0.960486 -0.000089 0.278327
vn -0.960486 -0.000089 0.278327
vn -0.679579 0.678682 0.278502
vn -0.679464 0.678798 0.278502
vn -0.960486 -0.000072 0.278327
vn -0.679390 -0.678874 0.278496
vn -0.679516 -0.678750 0.278490
vn -0.679516 -0.678750 0.278490
vn -0.960486 -0.000089 0.278327
vn -0.960486 -0.000072 0.278327
vn -0.679390 -0.678874 0.278496
vn 0.000073 -0.960366 0.278741
vn 0.000058 -0.960367 0.278739
vn 0.000058 -0.960367 0.278739
vn -0.679516 -0.678750 0.278490
vn -0.679390 -0.678874 0.278496
vn 0.000073 -0.960366 0.278741
vn 0.679504 -0.678754 0.278511
vn 0.679619 -0.678635 0.278518
vn 0.679619 -0.678635 0.278518
vn 0.000058 -0.960367 0.278739
vn 0.000073 -0.960366 0.278741
vn 0.679504 -0.678754 0.278511
vn 0.960486 0.000107 0.278327
vn 0.960486 0.000122 0.278329
vn 0.960486 0.000122 0.278329
vn 0.679619 -0.678635 0.278518
vn 0.679504 -0.678754 0.278511
vn 0.499934 0.866064 0.000015
vn 0.499937 0.866062 0.000015
vn 0.865992 0.500058 0.000008
vn 0.865992 0.500058 0.000008
vn 0.865988 0.500065 0.000010
vn 0.499934 0.866064 0.000015
vn -0.000079 1.000000 0.000019
vn -0.000078 1.000000 0.000019
vn 0.499937 0.866062 0.000015
vn 0.499937 0.866062 0.000015
vn 0.499934 0.866064 0.000015
vn -0.000079 1.000000 0.000019
vn -0.500065 0.865988 0.000017
vn -0.500068 0.865986 0.000016
vn -0.000078 1.000000 0.000019
vn -0.000078 1.000000 0.000019
vn -0.000079 1.000000 0.000019
vn -0.500065 0.865988 0.000017
vn -1.000000 -0.000074 0.000001
vn -1.000000 -0.000069 -0.000003
vn -0.866063 0.499935 0.000007
vn -0.866063 0.499935 0.000007
vn -0.866061 0.499938 0.000009
vn -1.000000 -0.000074 0.000001
vn -0.499937 -0.866062 -0.000017
vn -0.499934 -0.866063 -0.000017
vn -0.865989 -0.500063 -0.000011
vn -0.865989 -0.500063 -0.000011
vn -0.865991 -0.500060 -0.000009
vn -0.499937 -0.866062 -0.000017
vn 0.000079 -1.000000 -0.000019
vn 0.000079 -1.000000 -0.000019
vn -0.499934 -0.866063 -0.000017
vn -0.499934 -0.866063 -0.000017
vn -0.499937 -0.866062 -0.000017
vn 0.000079 -1.000000 -0.000019
vn 0.500068 -0.865986 -0.000016
vn 0.500065 -0.865988 -0.000016
vn 0.000079 -1.000000 -0.000019
vn 0.000079 -1.000000 -0.000019
vn 0.000079 -1.000000 -0.000019
vn 0.500068 -0.865986 -0.000016
vn 1.000000 0.000080 0.000001
vn 1.000000 0.000063 -0.000003
vn 0.866060 -0.499940 -0.000011
vn 0.866060 -0.499940 -0.000011
vn 0.866064 -0.499933 -0.000009
vn 1.000000 0.000080 0.000001
vn 0.865988 0.500065 0.000010
vn 0.865992 0.500058 0.000008
vn 1.000000 0.000063 -0.000003
vn 1.000000 0.000063 -0.000003
vn 1.000000 0.000080 0.000001
vn 0.865988 0.500065 0.000010
vn -0.866061 0.499938 0.000009
vn -0.866063 0.499935 0.000007
vn -0.500068 0.865986 0.000016
vn -0.500068 0.865986 0.000016
vn -0.500065 0.865988 0.000017
vn -0.866061 0.499938 0.000009
vn -0.865991 -0.500060 -0.000009
vn -0.865989 -0.500063 -0.000011
vn -1.000000 -0.000069 -0.000003
vn -1.000000 -0.000069 -0.000003
vn -1.000000 -0.000074 0.000001
vn -0.865991 -0.500060 -0.000009
vn 0.866064 -0.499933 -0.000009
vn 0.866060 -0.499940 -0.000011
vn 0.500065 -0.865988 -0.000016
vn 0.500065 -0.865988 -0.000016
vn 0.500068 -0.865986 -0.000016
vn 0.866064 -0.499933 -0.000009
vn 0.000000 -0.000000 -1.000000
vn 0.000001 -0.000001 -1.000000
vn 0.000000 0.000000 -1.000000
vn 0.000000 0.000000 -1.000000
vn 0.000000 0.000000 -1.000000
vn 0.000000 0.000000 -1.000000
vn 0.000000 0.000000 -1.000000
vn 0.000000 0.000000 -1.000000
vn 0.000000 0.000000 -1.000000
vn 0.000000 -0.000000 -1.000000
vn 0.000000 0.000000 -1.000000
vn 0.000000 0.000000 -1.000000
vn 0.000000 -0.000000 -1.000000
vn 0.000000 0.000000 -1.000000
vn 0.000000 0.000000 -1.000000
vn 0.000000 0.000000 -1.000000
vn 0.000000 0.000000 -1.000000
vn 0.000000 -0.000000 -1.000000
vn 0.000000 -0.000000 -1.000000
vn 0.000000 0.000000 -1.000000
vn 0.000000 0.000000 -1.000000
vn 0.000000 -0.000000 -1.000000
vn 0.000000 -0.000000 -1.000000
vn 0.000000 0.000000 -1.000000
vn 0.000000 0.000000 -1.000000
vn 0.000000 -0.000000 -1.000000
vn 0.000000 0.000000 -1.000000
vn 0.000000 0.000000 -1.000000
vn 0.000000 0.000000 -1.000000
vn 0.000001 0.000001 -1.000000
vn -0.706911 0.707296 -0.003167
vn -0.999990 -0.000146 -0.004549
vn -0.999990 -0.000082 -0.004527
vn -0.999990 -0.000082 -0.004527
vn -0.707123 0.707085 -0.002777
vn -0.706911 0.707296 -0.003167
vn 0.001009 1.000000 0.000064
vn -0.706911 0.707296 -0.003167
vn -0.707123 0.707085 -0.002777
vn -0.707123 0.707085 -0.002777
vn 0.000235 1.000000 0.000334
vn 0.001009 1.000000 0.000064
vn 0.707880 0.706327 0.002847
vn 0.001009 1.000000 0.000064
vn 0.000235 1.000000 0.000334
vn 0.000235 1.000000 0.000334
vn 0.706817 0.707391 0.002787
vn 0.707880 0.706327 0.002847
vn 0.999992 0.000134 0.003897
vn 0.707880 0.706327 0.002847
vn 0.706817 0.707391 0.002787
vn 0.706817 0.707391 0.002787
vn 0.999992 0.000061 0.003920
vn 0.999992 0.000134 0.003897
vn 0.707978 -0.706229 0.002797
vn 0.999992 0.000134 0.003897
vn 0.999992 0.000061 0.003920
vn 0.999992 0.000061 0.003920
vn 0.706840 -0.707368 0.002875
vn 0.707978 -0.706229 0.002797
vn 0.000888 -1.000000 0.000309
vn 0.707978 -0.706229 0.002797
vn 0.706840 -0.707368 0.002875
vn 0.706840 -0.707368 0.002875
vn 0.000019 -1.000000 0.000049
vn 0.000888 -1.000000 0.000309
vn -0.706730 -0.707478 -0.002826
vn 0.000888 -1.000000 0.000309
vn 0.000019 -1.000000 0.000049
vn 0.000019 -1.000000 0.000049
vn -0.707040 -0.707167 -0.003184
vn -0.706730 -0.707478 -0.002826
vn -0.999990 -0.000146 -0.004549
vn -0.706730 -0.707478 -0.002826
vn -0.707040 -0.707167 -0.003184
vn -0.707040 -0.707167 -0.003184
vn -0.999990 -0.000082 -0.004527
vn -0.999990 -0.000146 -0.004549
vn -0.000000 -0.000000 1.000000
vn -0.000000 -0.000000 1.000000
vn -0.000000 0.000000 1.000000
vn -0.000000 -0.000000 1.000000
vn -0.000000 0.000000 1.000000
vn -0.000000 0.000000 1.000000
vn -0.000000 -0.000000 1.000000
vn -0.000000 0.000000 1.000000
vn -0.000000 0.000000 1.000000
vn -0.000000 -0.000000 1.000000
vn -0.000000 0.000000 1.000000
vn -0.000000 -0.000000 1.000000
vn -0.000000 -0.000000 1.000000
vn -0.000000 -0.000000 1.000000
vn -0.000001 -0.000001 1.000000
vn -0.000000 -0.000000 1.000000
vn -0.000001 0.000001 1.000000
vn -0.000000 0.000000 1.000000
vn -0.000000 -0.000000 1.000000
vn -0.000000 0.000000 1.000000
vn -0.000000 -0.000000 1.000000
vn -0.000000 -0.000000 1.000000
vn -0.000000 -0.000000 1.000000
vn -0.000000 -0.000000 1.000000
vn -0.000000 -0.000000 1.000000
vn -0.000000 -0.000000 1.000000
vn -0.000000 -0.000000 1.000000
vn -0.000000 -0.000000 1.000000
vn -0.000000 -0.000000 1.000000
vn -0.000000 -0.000000 1.000000
s off
g SM_DripStand_01e
f 1/1/1 19/33/2 20/34/3
f 20/34/4 2/2/5 1/1/6
f 2/2/7 4/4/8 3/3/9
f 3/3/10 1/1/11 2/2/12
f 4/4/13 6/6/14 5/5/15
f 5/5/16 3/3/17 4/4/18
f 6/6/19 8/8/20 7/7/21
f 7/7/22 5/5/23 6/6/24
f 8/8/25 9/10/26 22/9/27
f 22/9/28 7/7/29 8/8/30
f 10/12/31 12/14/32 11/13/33
f 11/13/34 21/11/35 10/12/36
f 12/14/37 14/16/38 13/15/39
f 13/15/40 11/13/41 12/14/42
f 14/16/43 16/18/44 15/17/45
f 15/17/46 13/15/47 14/16/48
f 16/18/49 18/20/50 17/19/51
f 17/19/52 15/17/53 16/18/54
f 17/19/55 18/20/56 20/34/57
f 20/34/58 19/33/59 17/19/60
f 21/21/61 11/22/62 13/23/63
f 13/23/64 15/24/65 17/25/66
f 13/23/67 17/25/68 19/26/69
f 21/21/70 13/23/71 19/26/72
f 1/27/73 3/28/74 5/29/75
f 19/26/76 1/27/77 5/29/78
f 21/21/79 19/26/80 5/29/81
f 22/31/82 21/21/83 5/29/84
f 22/31/85 5/29/86 7/30/87
f 14/45/88 12/46/89 10/47/90
f 9/37/91 8/38/92 6/39/93
f 6/39/94 4/40/95 2/41/96
f 9/37/97 6/39/98 2/41/99
f 10/47/100 9/37/101 2/41/102
f 2/41/103 20/42/104 18/43/105
f 10/47/106 2/41/107 18/43/108
f 14/45/109 10/47/110 18/43/111
f 14/45/112 18/43/113 16/44/114
f 21/11/115 24/32/116 23/35/117
f 23/35/118 10/12/119 21/11/120
f 22/31/121 25/51/122 24/49/123
f 24/49/124 21/21/125 22/31/126
f 9/10/127 26/48/128 25/36/129
f 25/36/130 22/9/131 9/10/132
f 10/47/133 23/50/134 26/52/135
f 26/52/136 9/37/137 10/47/138
f 29/106/139 30/107/140 28/108/141
f 28/108/142 27/105/143 29/106/144
f 55/110/145 59/111/146 61/112/147
f 61/112/148 35/109/149 55/110/150
f 31/78/151 27/86/152 28/87/153
f 28/87/154 32/75/155 31/78/156
f 32/54/157 28/55/158 30/56/159
f 30/56/160 34/53/161 32/54/162
f 34/89/163 30/90/164 29/91/165
f 29/91/166 33/88/167 34/89/168
f 31/57/169 33/58/170 29/59/171
f 29/59/172 27/60/173 31/57/174
f 46/113/175 41/114/176 42/115/177
f 42/115/178 45/116/179 46/113/180
f 48/118/181 43/119/182 44/120/183
f 44/120/184 47/117/185 48/118/186
f 38/139/187 50/140/188 49/141/189
f 49/141/190 37/142/191 38/139/192
f 51/144/193 39/145/194 40/146/195
f 40/146/196 52/143/197 51/144/198
f 49/121/199 53/122/200 37/123/201
f 38/63/202 37/66/203 42/67/204
f 42/67/205 41/68/206 38/63/207
f 40/69/208 39/70/209 44/71/210
f 44/71/211 43/72/212 40/69/213
f 50/140/214 35/147/215 61/148/216
f 61/148/217 60/149/218 62/150/219
f 61/148/220 62/150/221 49/141/222
f 50/140/223 61/148/224 49/141/225
f 65/153/226 36/154/227 51/144/228
f 65/153/229 51/144/230 52/143/231
f 63/152/232 65/153/233 52/143/234
f 64/151/235 63/152/236 52/143/237
f 62/124/238 58/125/239 53/122/240
f 53/122/241 49/121/242 62/124/243
f 56/127/244 55/110/245 35/109/246
f 35/109/247 36/126/248 56/127/249
f 47/155/250 44/156/251 41/157/252
f 41/157/253 46/158/254 47/155/255
f 45/159/256 42/160/257 43/161/258
f 43/161/259 48/162/260 45/159/261
f 38/62/262 39/64/263 51/65/264
f 51/65/265 50/61/266 38/62/267
f 52/128/268 40/129/269 54/130/270
f 40/69/271 43/72/272 42/67/273
f 42/67/274 37/66/275 40/69/276
f 41/68/277 44/71/278 39/70/279
f 39/70/280 38/63/281 41/68/282
f 50/61/283 51/65/284 36/77/285
f 36/77/286 35/76/287 50/61/288
f 64/131/289 52/128/290 54/130/291
f 54/130/292 68/132/293 64/131/294
f 48/73/295 47/74/296 46/79/297
f 46/79/298 45/80/299 48/73/300
f 58/125/301 62/124/302 60/133/303
f 60/133/304 57/134/305 58/125/306
f 64/131/307 68/132/308 66/135/309
f 66/135/310 63/136/311 64/131/312
f 61/112/313 59/111/314 57/134/315
f 57/134/316 60/133/317 61/112/318
f 67/137/319 65/138/320 63/136/321
f 63/136/322 66/135/323 67/137/324
f 70/165/325 77/166/326 75/163/327
f 75/163/328 69/164/329 70/165/330
f 72/169/331 71/170/332 74/167/333
f 74/167/334 78/168/335 72/169/336
f 76/171/337 73/172/338 75/163/339
f 75/163/340 77/166/341 76/171/342
f 73/172/343 76/171/344 78/168/345
f 78/168/346 74/167/347 73/172/348
f 37/123/349 53/122/350 54/130/351
f 54/130/352 40/129/353 37/123/354
f 65/138/355 67/137/356 56/127/357
f 56/127/358 36/126/359 65/138/360
f 54/173/361 53/174/362 70/182/363
f 70/182/364 69/181/365 54/173/366
f 53/83/367 58/84/368 77/85/369
f 77/85/370 70/92/371 53/83/372
f 58/84/373 57/93/374 76/94/375
f 76/94/376 77/85/377 58/84/378
f 57/93/379 59/95/380 78/96/381
f 78/96/382 76/94/383 57/93/384
f 59/95/385 55/99/386 72/100/387
f 72/100/388 78/96/389 59/95/390
f 55/81/391 56/82/392 71/97/393
f 71/97/394 72/98/395 55/81/396
f 56/101/397 67/102/398 74/103/399
f 74/103/400 71/104/401 56/101/402
f 67/102/403 66/175/404 73/176/405
f 73/176/406 74/103/407 67/102/408
f 66/175/409 68/177/410 75/178/411
f 75/178/412 73/176/413 66/175/414
f 68/177/415 54/179/416 69/180/417
f 69/180/418 75/178/419 68/177/420
f 81/185/421 82/186/422 83/187/423
f 83/187/424 79/183/425 80/184/426
f 81/185/427 83/187/428 80/184/429
f 83/187/430 84/188/431 85/189/432
f 83/187/433 85/189/434 86/190/435
f 83/187/436 86/190/437 79/183/438
f 87/193/439 88/194/440 82/191/441
f 82/191/442 81/192/443 87/193/444
f 88/194/445 89/196/446 83/195/447
f 83/195/448 82/191/449 88/194/450
f 89/196/451 90/198/452 84/197/453
f 84/197/454 83/195/455 89/196/456
f 90/198/457 91/200/458 85/199/459
f 85/199/460 84/197/461 90/198/462
f 91/200/463 92/202/464 86/201/465
f 86/201/466 85/199/467 91/200/468
f 92/202/469 93/204/470 79/203/471
f 79/203/472 86/201/473 92/202/474
f 93/204/475 94/206/476 80/205/477
f 80/205/478 79/203/479 93/204/480
f 94/206/481 87/193/482 81/192/483
f 81/192/484 80/205/485 94/206/486
f 98/210/487 95/207/488 96/208/489
f 96/208/490 97/209/491 98/210/492
f 100/212/493 99/211/494 95/207/495
f 95/207/496 98/210/497 100/212/498
f 102/214/499 101/213/500 99/211/501
f 99/211/502 100/212/503 102/214/504
f 106/218/505 103/215/506 104/216/507
f 104/216/508 105/217/509 106/218/510
f 110/222/511 107/219/512 108/220/513
f 108/220/514 109/221/515 110/222/516
f 112/224/517 111/223/518 107/219/519
f 107/219/520 110/222/521 112/224/522
f 114/228/523 113/225/524 111/226/525
f 111/226/526 112/227/527 114/228/528
f 118/232/529 115/229/530 116/230/531
f 116/230/532 117/231/533 118/232/534
f 97/209/535 96/208/536 115/229/537
f 115/229/538 118/232/539 97/209/540
f 105/217/541 104/216/542 101/213/543
f 101/213/544 102/214/545 105/217/546
f 109/221/547 108/220/548 103/215/549
f 103/215/550 106/218/551 109/221/552
f 117/231/553 116/230/554 113/225/555
f 113/225/556 114/228/557 117/231/558
f 105/236/559 102/237/560 100/238/561
f 100/238/562 112/239/563 110/233/564
f 100/238/565 110/233/566 109/234/567
f 105/236/568 100/238/569 109/234/570
f 105/236/571 109/234/572 106/235/573
f 97/241/574 118/242/575 117/243/576
f 114/244/577 112/239/578 100/238/579
f 117/243/580 114/244/581 100/238/582
f 97/241/583 117/243/584 100/238/585
f 97/241/586 100/238/587 98/240/588
f 121/247/589 122/248/590 119/245/591
f 119/245/592 120/246/593 121/247/594
f 124/250/595 121/247/596 120/246/597
f 120/246/598 123/249/599 124/250/600
f 126/252/601 124/250/602 123/249/603
f 123/249/604 125/251/605 126/252/606
f 128/254/607 126/252/608 125/251/609
f 125/251/610 127/253/611 128/254/612
f 130/256/613 128/254/614 127/253/615
f 127/253/616 129/255/617 130/256/618
f 132/258/619 130/256/620 129/255/621
f 129/255/622 131/257/623 132/258/624
f 134/261/625 132/262/626 131/259/627
f 131/259/628 133/260/629 134/261/630
f 122/248/631 134/261/632 133/260/633
f 133/260/634 119/245/635 122/248/636
f 99/265/637 111/266/638 113/267/639
f 99/265/640 113/267/641 116/268/642
f 99/265/643 116/268/644 115/269/645
f 99/265/646 115/269/647 96/263/648
f 99/265/649 96/263/650 95/264/651
f 99/265/652 101/272/653 104/273/654
f 99/265/655 104/273/656 103/274/657
f 99/265/658 103/274/659 108/270/660
f 99/265/661 108/270/662 107/271/663
f 99/265/664 107/271/665 111/266/666
