# This file uses feet as units for non-parametric coordinates.

g default
v 21.966400 1.179800 11.950900
v 21.966400 2.460100 12.564000
v 21.966400 1.046400 -18.203800
v 21.966400 1.874400 -18.753401
v 21.966400 23.783001 -15.655600
v 21.966400 30.029100 -14.503600
v 17.302099 30.029100 -14.503600
v 21.966400 0.000000 -14.311500
v 21.966400 4.217300 -18.926600
v 8.297900 3.548700 9.659200
v 8.297900 1.909600 9.659300
v 21.966400 0.468600 -17.215099
v 8.296000 0.813100 9.659200
v 8.297900 4.337900 12.429900
v 8.297900 2.460100 12.564000
v 8.297600 1.176100 11.952900
v 8.297900 0.465800 10.924800
v 8.297900 -0.000000 9.659200
v 21.966400 30.029100 1.894300
v 21.966400 4.872000 12.429900
v 21.966400 25.536100 6.918200
v 12.686600 30.029100 -5.401200
v 14.494000 30.029100 -5.401200
v 14.494000 28.324301 -5.401200
v 12.610600 28.324301 -5.456100
v 15.694700 30.029100 -5.950400
v 15.694700 28.324301 -5.950400
v 16.211100 30.029100 -7.068300
v 16.211100 28.324301 -7.068300
v 15.807200 30.029100 -8.069300
v 15.974800 28.324301 -8.069300
v 14.494000 30.029100 -8.735300
v 14.494000 28.324301 -8.735300
v 17.302099 30.029100 -3.936100
v 12.610600 28.324301 -8.790300
v 12.686600 30.029100 -8.735300
v 20.630699 30.029100 -14.503600
v 20.630699 30.029100 -3.936100
v 19.660500 4.337900 12.429900
v 21.966400 29.533199 4.010700
v 19.660500 2.460100 12.564000
v 19.660500 1.179800 11.950900
v 19.660500 0.465800 10.924800
v 21.966400 0.465800 10.924800
v 19.660400 -0.000000 9.659200
v 21.966400 -0.000000 9.614600
v 21.966400 28.291500 5.718700
v 19.660500 1.909600 9.659300
v 19.660500 3.548700 9.659200
v 19.660601 0.814500 9.659200
v 20.630699 26.339899 -15.094600
v 20.630699 26.339899 -3.936100
v 17.302099 26.339899 -3.936100
v 17.291401 26.339899 -15.083100
v -21.966400 29.533199 4.010700
v -21.966400 2.460100 12.564000
v -21.966400 1.179800 11.950900
v -21.966400 1.874400 -18.753401
v -21.966400 1.046400 -18.203800
v -21.966400 28.291500 5.718700
v -21.966400 30.029100 -14.503600
v -21.966400 26.339899 -15.043400
v -21.966400 0.000000 -14.311500
v -0.893800 1.909600 9.596900
v -0.893800 3.548700 9.596900
v -21.966400 0.468600 -17.215099
v -0.891900 0.813100 9.597000
v -0.893800 4.337900 12.429900
v -0.893800 2.460100 12.564000
v -0.893400 1.176100 11.952900
v -0.893800 0.465800 10.924800
v -0.893800 -0.000000 9.614600
v -21.966400 4.872000 12.429900
v -21.966400 25.536100 6.918200
v -19.521999 6.235400 -18.549000
v -17.230101 30.029100 -3.936100
v -20.558800 30.029100 -14.503600
v -20.558800 30.029100 -3.936100
v -17.230101 30.029100 -14.503600
v -17.230101 26.339899 -3.936100
v -19.588499 4.337900 12.429900
v -21.966400 30.029100 1.889300
v -19.588499 2.460100 12.564000
v -21.966400 0.465800 10.924800
v -19.588499 0.465800 10.924800
v -19.588499 1.179800 11.950900
v -21.966400 -0.000000 9.614600
v -19.588499 -0.000000 9.614600
v -19.588600 3.548700 9.596900
v -19.588600 1.909600 9.596900
v -19.588600 0.814500 9.596800
v -21.966400 4.217300 -18.926600
v -20.558800 26.339899 -15.043400
v -20.558800 26.339899 -3.936100
v -17.219500 26.339899 -15.083100
v 20.197300 6.235400 -18.548901
v 20.197300 23.354799 -15.350900
v -19.521999 23.354799 -15.350900
v -19.521999 6.420400 -14.910300
v 20.197300 6.509700 -14.910300
v 20.197300 23.190701 -14.706700
v -19.521999 23.190701 -14.706700
v 20.493601 29.961000 -4.117700
v 17.590599 29.961000 -4.117700
v 17.590599 34.066700 -15.398100
v 20.493601 35.195900 -18.500401
v -20.319401 29.961000 -4.117700
v -17.434200 29.961000 -4.117700
v -17.434200 34.066700 -15.398100
v -20.319401 35.195900 -18.500401
v 17.590700 26.947500 -5.214500
v 20.493601 32.182400 -19.597200
v -17.434200 26.947500 -5.214500
v -17.434200 31.053301 -16.494900
v -20.319401 32.182400 -19.597200
v 20.493601 26.947500 -5.214500
v 17.590700 31.053301 -16.494900
v 20.493601 33.183498 -20.003599
v 20.493500 34.019402 -19.956301
v 20.493601 34.690201 -19.455200
v -20.319401 26.947500 -5.214500
v -20.319401 33.183498 -20.003599
v -20.319401 34.019402 -19.956301
v -20.319401 34.690201 -19.455200
v 10.911200 19.108500 8.601900
v 10.911200 19.532499 10.184200
v 10.911200 15.353000 9.608300
v 9.536600 15.903000 9.460900
v 9.115200 16.512199 9.297700
v 8.967200 17.230801 9.105200
v 9.115200 17.949400 8.912500
v 9.536600 18.558500 8.749300
v 10.167300 18.965599 8.640300
v 9.115200 18.082001 9.407400
v 8.967200 17.343800 9.526900
v 9.101000 16.712000 9.768500
v 9.712600 15.985500 10.223300
v 9.712700 18.868299 9.450900
v 10.219700 15.784200 10.685700
v 10.219700 19.273899 9.750600
v 10.372900 19.429100 10.212000
v 10.372900 15.880400 11.162900
v 11.655100 15.496000 9.570000
v 10.911200 15.777000 11.190500
v 11.449500 15.880500 11.162800
v 11.602800 15.784200 10.685700
v 12.707300 17.949400 8.912500
v 12.855200 17.230801 9.105200
v 12.855200 17.343800 9.526900
v 12.707300 18.082001 9.407400
v 12.285900 18.558500 8.749300
v 11.602800 19.273899 9.750600
v 11.655200 18.965599 8.640300
v 11.449500 19.429100 10.212000
v 12.721400 16.711901 9.768500
v 12.707300 16.512199 9.297700
v 12.109800 15.985500 10.223300
v 12.285900 15.903000 9.460900
v 12.109800 18.868299 9.450900
v 10.911200 19.407900 9.719300
v 10.911200 15.658100 10.746700
v 10.167300 15.496000 9.570000
v -17.673300 0.691829 20.398300
v -2.350600 0.691829 20.398300
v -17.673300 1.794779 17.003000
v -2.350600 1.794779 17.003000
v -17.673300 2.287760 13.607500
v -2.350600 2.287760 13.607500
v -17.673300 2.514500 10.212100
v -2.350600 2.514500 10.212100
v -17.673300 2.770400 6.816700
v -2.350600 2.770400 6.816700
v 9.077800 12.399400 11.363500
v 9.076300 12.480600 11.727400
v 8.992000 12.053700 11.822300
v 8.969500 11.846300 11.464500
v 7.513300 10.641100 10.769200
v 7.511800 10.718200 11.115000
v 6.907100 10.844800 11.147200
v 6.908800 10.754300 10.741300
v 6.395000 11.084700 10.665500
v 6.296200 11.357400 11.234400
v 6.050100 11.582000 10.553100
v 6.037600 11.827100 11.456500
v 6.010500 12.034100 11.814200
v 5.921000 12.459900 11.718900
v 5.922700 12.374800 11.337600
v 8.116300 10.762200 10.744600
v 8.057000 10.840100 11.148200
v 8.626100 11.099400 10.671500
v 8.718200 11.373300 11.240900
v 8.965100 11.601200 10.561000
v 8.986800 12.906400 11.632100
v 8.963000 12.941800 11.220100
v 7.494900 13.720600 10.082200
v 6.891800 13.599400 10.106600
v 6.890200 13.690000 10.512500
v 7.493400 13.797800 10.428000
v 6.382000 13.262300 10.179700
v 6.284900 13.256100 10.810900
v 6.043100 12.760500 10.290200
v 6.031000 12.922500 11.212100
v 6.005400 12.886800 11.624000
v 8.039900 13.707700 10.508500
v 8.099300 13.607400 10.109900
v 8.706900 13.272100 10.817400
v 8.613100 13.277000 10.185700
v 8.958100 12.779600 10.298200
v 5.926400 12.170500 10.421400
v 9.081700 12.191200 10.429900
v 12.722600 11.913400 11.465300
v 12.717000 12.010400 11.825300
v 12.654600 12.436000 11.709700
v 12.642900 12.454600 11.296100
v 13.704700 13.609500 10.032900
v 13.699400 13.701700 10.375000
v 14.307900 13.803200 10.420800
v 14.314100 13.695100 10.019300
v 14.910100 13.549000 10.068000
v 15.038200 13.609800 10.690700
v 15.402000 13.193600 10.171500
v 15.409900 13.400900 11.084300
v 15.468400 13.398300 11.494300
v 15.694800 13.028700 11.597400
v 15.700600 12.927100 11.220300
v 13.174600 13.305400 10.106600
v 13.219000 13.441400 10.496400
v 12.804500 12.829000 10.229200
v 12.752400 12.828200 10.865600
v 12.650900 12.252800 10.382000
v 12.943300 11.640900 11.928400
v 13.013700 11.433200 11.577100
v 14.747100 10.738000 10.822900
v 15.277200 11.042200 10.749100
v 15.270900 11.150300 11.150600
v 14.741800 10.830200 11.165000
v 15.647200 11.518500 10.626600
v 15.680900 11.839400 11.177700
v 15.800900 12.094700 10.473800
v 15.780700 12.379400 11.365300
v 15.757100 12.603100 11.713100
v 14.189600 10.767600 11.232000
v 14.137700 10.652500 10.836400
v 13.395100 11.057700 11.352600
v 13.541600 10.798500 10.787700
v 13.049800 11.154000 10.684300
v 15.714800 12.682900 10.313900
v 12.737000 11.664600 10.541800
vt 0.531000 0.132800
vt 0.523800 0.141500
vt 0.507500 0.144500
vt 0.534200 0.120800
vt 0.352900 0.042900
vt 0.359300 0.024100
vt 0.359500 0.168800
vt 0.148300 0.659500
vt 0.352900 0.157900
vt 0.534200 0.042300
vt 0.497400 0.038800
vt 0.378600 0.020600
vt 0.984900 0.669300
vt 0.972600 0.669300
vt 0.378500 0.171600
vt 0.313000 0.677900
vt 0.313000 0.822800
vt 0.364200 0.021400
vt 0.364200 0.171300
vt 0.355700 0.164200
vt 0.355700 0.028900
vt 0.722700 0.640600
vt 0.972600 0.586500
vt 0.984900 0.586500
vt 0.098200 0.659500
vt 0.113700 0.659500
vt 0.113700 0.999900
vt 0.098200 0.999900
vt 0.000100 0.696300
vt 0.062200 0.696300
vt 0.726300 0.636200
vt 0.724700 0.646800
vt 0.719800 0.646800
vt 0.741800 0.646800
vt 0.731400 0.646800
vt 0.034100 0.928000
vt 0.326100 0.817700
vt 0.326100 0.804900
vt 0.336800 0.804900
vt 0.336800 0.818300
vt 0.326100 0.795100
vt 0.336800 0.795100
vt 0.326100 0.787500
vt 0.336800 0.787500
vt 0.959000 0.586500
vt 0.964900 0.586500
vt 0.964900 0.669300
vt 0.959000 0.669300
vt 0.326100 0.779900
vt 0.336800 0.779900
vt 0.326100 0.770100
vt 0.336800 0.770100
vt 0.336800 0.756800
vt 0.326100 0.757300
vt 0.652100 0.311000
vt 0.647600 0.303400
vt 0.663000 0.292900
vt 0.663000 0.314000
vt 0.652100 0.296000
vt 0.678400 0.292900
vt 0.678400 0.314000
vt 0.585500 0.982500
vt 0.000100 0.963700
vt 0.716800 0.963200
vt 0.716600 0.696400
vt 0.353500 0.999900
vt 0.353200 0.982000
vt 0.497200 0.999900
vt 0.529400 0.999900
vt 0.529300 0.659500
vt 0.547100 0.659500
vt 0.731100 0.633700
vt 0.745300 0.633400
vt 0.566800 0.982500
vt 0.566800 0.830400
vt 0.585500 0.830400
vt 0.783800 0.494400
vt 0.762400 0.494400
vt 0.762400 0.443400
vt 0.783800 0.444900
vt 0.547100 0.999900
vt 0.522300 0.999900
vt 0.514900 0.999900
vt 0.514900 0.659500
vt 0.522300 0.659500
vt 0.497100 0.659500
vt 0.313000 0.894000
vt 0.330700 0.822800
vt 0.330700 0.894000
vt 0.337500 0.822800
vt 0.337500 0.893900
vt 0.344800 0.894000
vt 0.344800 0.822800
vt 0.353500 0.822800
vt 0.973400 0.109000
vt 0.951900 0.107500
vt 0.951900 0.057800
vt 0.973400 0.057800
vt 0.353200 0.894000
vt 0.062200 0.963700
vt 0.062200 0.670400
vt 0.127800 0.659500
vt 0.127800 0.999900
vt 0.691700 0.986800
vt 0.691700 0.678400
vt 0.036900 0.952300
vt 0.034100 0.942100
vt 0.054000 0.942100
vt 0.054000 0.928000
vt 0.000100 0.989600
vt 0.062200 0.989600
vt 0.000100 0.999900
vt 0.044000 0.956600
vt 0.051200 0.952300
vt 0.148500 0.999900
vt 0.313000 0.982000
vt 0.313000 0.999900
vt 0.330700 0.982000
vt 0.330700 0.999900
vt 0.337500 0.999900
vt 0.337500 0.982000
vt 0.344800 0.982000
vt 0.344800 0.999900
vt 0.697200 0.999500
vt 0.562300 0.987100
vt 0.716800 0.989100
vt 0.353500 0.677900
vt 0.353500 0.659500
vt 0.000100 0.659500
vt 0.000100 0.670400
vt 0.313000 0.659500
vt 0.330700 0.659500
vt 0.330700 0.677900
vt 0.337500 0.659500
vt 0.344800 0.659500
vt 0.344800 0.677900
vt 0.337500 0.677900
vt 0.562100 0.678300
vt 0.646800 0.434600
vt 0.646800 0.416400
vt 0.142300 0.255700
vt 0.131900 0.255700
vt 0.128400 0.242300
vt 0.142500 0.242600
vt 0.147400 0.245100
vt 0.149000 0.255700
vt 0.151000 0.249700
vt 0.153900 0.255700
vt 0.716600 0.659600
vt 0.716600 0.670500
vt 0.914800 0.673500
vt 0.914800 0.999900
vt 0.903400 0.999900
vt 0.903400 0.673500
vt 0.303900 0.236800
vt 0.301100 0.230400
vt 0.739200 0.416400
vt 0.739200 0.434600
vt 0.306100 0.230300
vt 0.307700 0.241300
vt 0.323200 0.230300
vt 0.326700 0.244200
vt 0.312500 0.243900
vt 0.312800 0.230300
vt 0.998900 0.057800
vt 0.998900 0.107500
vt 0.977600 0.109000
vt 0.977600 0.057800
vt 0.980800 0.577100
vt 0.956600 0.577100
vt 0.956600 0.552000
vt 0.980800 0.552000
vt 0.178200 0.055000
vt 0.181500 0.067000
vt 0.170900 0.046500
vt 0.181500 0.145500
vt 0.160000 0.146900
vt 0.025600 0.016100
vt 0.154600 0.043300
vt 0.025700 0.167100
vt 0.000100 0.029900
vt 0.006600 0.019000
vt 0.578400 0.074200
vt 0.603600 0.136600
vt 0.578400 0.147100
vt 0.553100 0.084500
vt 0.006500 0.163700
vt 0.000100 0.144900
vt 0.011400 0.016400
vt 0.011500 0.166300
vt 0.222300 0.017700
vt 0.003000 0.023600
vt 0.003000 0.158900
vt 0.554900 0.028100
vt 0.554900 0.003100
vt 0.579100 0.003100
vt 0.579100 0.028100
vt 0.342600 0.167100
vt 0.330300 0.167100
vt 0.330300 0.031000
vt 0.342600 0.031000
vt 0.316700 0.031000
vt 0.949500 0.019600
vt 0.949500 0.041100
vt 0.899900 0.041100
vt 0.898300 0.019600
vt 0.322500 0.031000
vt 0.322500 0.167100
vt 0.316700 0.167100
vt 0.514400 0.255000
vt 0.514400 0.227600
vt 0.581900 0.227600
vt 0.581900 0.255000
vt 0.617100 0.281800
vt 0.514300 0.267900
vt 0.514300 0.259200
vt 0.617100 0.259200
vt 0.816200 0.606400
vt 0.802800 0.606700
vt 0.802500 0.592500
vt 0.816200 0.596000
vt 0.805300 0.611500
vt 0.816200 0.613000
vt 0.809900 0.615300
vt 0.816200 0.617900
vt 0.747700 0.999900
vt 0.747700 0.709500
vt 0.868400 0.709500
vt 0.868400 0.999900
vt 1.000000 0.673500
vt 1.000000 0.999900
vt 0.970300 0.999900
vt 0.970300 0.673500
vt 0.700500 0.494400
vt 0.700500 0.485100
vt 0.716600 0.485100
vt 0.716600 0.494400
vt 0.119500 0.031600
vt 0.119500 0.009000
vt 0.222300 0.009000
vt 0.743300 0.696300
vt 0.743300 0.963400
vt 0.743500 0.989100
vt 0.743500 0.999500
vt 0.743500 0.659500
vt 0.743500 0.670400
vt 0.014600 0.270700
vt 0.819800 0.693100
vt 0.741600 0.683300
vt 0.014600 0.171400
vt 0.742700 0.678600
vt 0.038900 0.192900
vt 0.891900 0.999900
vt 0.670500 0.196900
vt 0.694200 0.175900
vt 0.885900 0.999900
vt 0.646000 0.003500
vt 0.669000 0.003500
vt 0.746200 0.693100
vt 0.742700 0.688200
vt 0.746200 0.673700
vt 0.356100 0.270700
vt 0.819800 0.673700
vt 0.694200 0.272900
vt 0.885900 0.693900
vt 0.356100 0.171400
vt 0.670500 0.272900
vt 0.891900 0.693900
vt 0.879700 0.999900
vt 0.994600 0.373600
vt 0.936700 0.373600
vt 0.936700 0.354200
vt 0.994600 0.354200
vt 0.941900 0.999900
vt 0.919000 0.999900
vt 0.919000 0.744800
vt 0.941900 0.744800
vt 0.038900 0.270700
vt 0.384000 0.272900
vt 0.360300 0.272900
vt 0.014600 0.270700
vt 0.038900 0.270700
vt 0.360300 0.175900
vt 0.384000 0.196900
vt 0.412200 0.001900
vt 0.469800 0.001900
vt 0.469800 0.021500
vt 0.412200 0.021500
vt 0.160100 0.231600
vt 0.159000 0.226700
vt 0.237300 0.217000
vt 0.160100 0.221900
vt 0.163500 0.217000
vt 0.669000 0.024500
vt 0.237300 0.236500
vt 0.163500 0.236500
vt 0.646000 0.024500
vt 0.331900 0.192900
vt 0.331900 0.270700
vt 0.872600 0.999900
vt 0.872600 0.693900
vt 0.879700 0.693900
vt 0.899200 0.693900
vt 0.899200 0.999900
vt 0.307700 0.212300
vt 0.320700 0.964900
vt 0.317700 0.964900
vt 0.328600 0.947600
vt 0.328600 0.950000
vt 0.325800 0.950200
vt 0.325100 0.947600
vt 0.325300 0.952100
vt 0.328600 0.952400
vt 0.307900 0.213400
vt 0.323700 0.956800
vt 0.698300 0.284000
vt 0.706900 0.288100
vt 0.328600 0.944500
vt 0.703000 0.285100
vt 0.689200 0.287400
vt 0.317700 0.961200
vt 0.320900 0.960100
vt 0.686200 0.291300
vt 0.321000 0.939900
vt 0.328600 0.940100
vt 0.685100 0.296000
vt 0.328600 0.955700
vt 0.323700 0.943200
vt 0.317700 0.938800
vt 0.317700 0.935300
vt 0.774800 0.641600
vt 0.775400 0.636200
vt 0.790900 0.636200
vt 0.283700 0.222100
vt 0.283100 0.221100
vt 0.307100 0.217500
vt 0.287000 0.224800
vt 0.303500 0.223200
vt 0.298900 0.226000
vt 0.294000 0.226800
vt 0.570800 0.646600
vt 0.569800 0.646900
vt 0.561000 0.622700
vt 0.709500 0.292300
vt 0.685900 0.300800
vt 0.328600 0.960000
vt 0.320900 0.935200
vt 0.320900 0.969300
vt 0.320900 0.930600
vt 0.323400 0.927300
vt 0.791400 0.641600
vt 0.562000 0.622100
vt 0.565600 0.645900
vt 0.328500 0.925900
vt 0.710300 0.297100
vt 0.558300 0.626000
vt 0.557100 0.637700
vt 0.556300 0.632400
vt 0.790900 0.646800
vt 0.775400 0.646800
vt 0.706200 0.305800
vt 0.709000 0.301900
vt 0.317600 0.968300
vt 0.323400 0.972800
vt 0.328500 0.969900
vt 0.328300 0.974200
vt 0.328500 0.965000
vt 0.328300 0.922700
vt 0.325000 0.922700
vt 0.325500 0.920300
vt 0.328300 0.920300
vt 0.693400 0.284800
vt 0.701900 0.308400
vt 0.697100 0.309200
vt 0.688500 0.305000
vt 0.692400 0.308000
vt 0.328500 0.930300
vt 0.317700 0.931700
vt 0.328500 0.935200
vt 0.324800 0.918300
vt 0.328100 0.918000
vt 0.559600 0.642000
vt 0.328100 0.977500
vt 0.324800 0.977500
vt 0.881100 0.220700
vt 0.881100 0.113700
vt 0.907800 0.220700
vt 0.907800 0.113700
vt 0.934500 0.220700
vt 0.934500 0.113700
vt 0.961200 0.220700
vt 0.961200 0.113700
vt 0.987900 0.220700
vt 0.987900 0.113700
vt 0.320700 0.964900
vt 0.317700 0.964900
vt 0.317700 0.961200
vt 0.320900 0.960100
vt 0.328600 0.950000
vt 0.325800 0.950200
vt 0.325100 0.947600
vt 0.328600 0.947600
vt 0.328600 0.944500
vt 0.323700 0.943200
vt 0.328600 0.940100
vt 0.321000 0.939900
vt 0.317700 0.938800
vt 0.317700 0.935300
vt 0.320900 0.935200
vt 0.774800 0.641600
vt 0.775400 0.636200
vt 0.790900 0.636200
vt 0.791400 0.641600
vt 0.328600 0.952400
vt 0.325300 0.952100
vt 0.328600 0.955700
vt 0.323700 0.956800
vt 0.328600 0.960000
vt 0.307700 0.212300
vt 0.307900 0.213400
vt 0.283700 0.222100
vt 0.283100 0.221100
vt 0.307100 0.217500
vt 0.287000 0.224800
vt 0.303500 0.223200
vt 0.298900 0.226000
vt 0.294000 0.226800
vt 0.317600 0.968300
vt 0.320900 0.969300
vt 0.328300 0.920300
vt 0.328300 0.922700
vt 0.325000 0.922700
vt 0.325500 0.920300
vt 0.328500 0.925900
vt 0.323400 0.927300
vt 0.328500 0.930300
vt 0.320900 0.930600
vt 0.317700 0.931700
vt 0.790900 0.646800
vt 0.775400 0.646800
vt 0.324800 0.918300
vt 0.328100 0.918000
vt 0.324800 0.977500
vt 0.323400 0.972800
vt 0.328300 0.974200
vt 0.328100 0.977500
vt 0.328500 0.969900
vt 0.569800 0.646900
vt 0.561000 0.622700
vt 0.562000 0.622100
vt 0.570800 0.646600
vt 0.565600 0.645900
vt 0.558300 0.626000
vt 0.557100 0.637700
vt 0.556300 0.632400
vt 0.559600 0.642000
vt 0.328500 0.935200
vt 0.328500 0.965000
vt 0.698300 0.284000
vt 0.706900 0.288100
vt 0.703000 0.285100
vt 0.689200 0.287400
vt 0.686200 0.291300
vt 0.685100 0.296000
vt 0.709500 0.292300
vt 0.685900 0.300800
vt 0.710300 0.297100
vt 0.706200 0.305800
vt 0.709000 0.301900
vt 0.693400 0.284800
vt 0.701900 0.308400
vt 0.697100 0.309200
vt 0.688500 0.305000
vt 0.692400 0.308000
vt 0.320700 0.964900
vt 0.317700 0.964900
vt 0.317700 0.961200
vt 0.320900 0.960100
vt 0.328600 0.950000
vt 0.325800 0.950200
vt 0.325100 0.947600
vt 0.328600 0.947600
vt 0.328600 0.944500
vt 0.323700 0.943200
vt 0.328600 0.940100
vt 0.321000 0.939900
vt 0.317700 0.938800
vt 0.317700 0.935300
vt 0.320900 0.935200
vt 0.774800 0.641600
vt 0.775400 0.636200
vt 0.790900 0.636200
vt 0.791400 0.641600
vt 0.328600 0.952400
vt 0.325300 0.952100
vt 0.328600 0.955700
vt 0.323700 0.956800
vt 0.328600 0.960000
vt 0.307700 0.212300
vt 0.307900 0.213400
vt 0.283700 0.222100
vt 0.283100 0.221100
vt 0.307100 0.217500
vt 0.287000 0.224800
vt 0.303500 0.223200
vt 0.298900 0.226000
vt 0.294000 0.226800
vt 0.317600 0.968300
vt 0.320900 0.969300
vt 0.328300 0.920300
vt 0.328300 0.922700
vt 0.325000 0.922700
vt 0.325500 0.920300
vt 0.328500 0.925900
vt 0.323400 0.927300
vt 0.328500 0.930300
vt 0.320900 0.930600
vt 0.317700 0.931700
vt 0.790900 0.646800
vt 0.775400 0.646800
vt 0.324800 0.918300
vt 0.328100 0.918000
vt 0.324800 0.977500
vt 0.323400 0.972800
vt 0.328300 0.974200
vt 0.328100 0.977500
vt 0.328500 0.969900
vt 0.569800 0.646900
vt 0.561000 0.622700
vt 0.562000 0.622100
vt 0.570800 0.646600
vt 0.565600 0.645900
vt 0.558300 0.626000
vt 0.557100 0.637700
vt 0.556300 0.632400
vt 0.559600 0.642000
vt 0.328500 0.935200
vt 0.328500 0.965000
vt 0.698300 0.284000
vt 0.706900 0.288100
vt 0.703000 0.285100
vt 0.689200 0.287400
vt 0.686200 0.291300
vt 0.685100 0.296000
vt 0.709500 0.292300
vt 0.685900 0.300800
vt 0.710300 0.297100
vt 0.706200 0.305800
vt 0.709000 0.301900
vt 0.693400 0.284800
vt 0.701900 0.308400
vt 0.697100 0.309200
vt 0.688500 0.305000
vt 0.692400 0.308000
vn 0.001999 0.326592 0.945163
vn 0.017731 0.182555 0.983036
vn 0.000000 0.192220 0.981352
vn 1.000000 0.000000 0.000000
vn 1.000000 0.000000 0.000000
vn 1.000000 0.000000 0.000000
vn 1.000000 0.000000 0.000000
vn 1.000000 0.000000 0.000000
vn 1.000000 0.000000 0.000000
vn -0.000013 0.909327 0.416082
vn 0.000000 0.909221 0.416313
vn -0.000000 0.993386 0.114827
vn -0.000000 0.993386 0.114827
vn -0.000013 0.993417 0.114559
vn -0.000013 0.909327 0.416082
vn 0.000000 -0.000015 1.000000
vn 0.000000 -0.000015 1.000000
vn 0.000000 0.000061 1.000000
vn 0.000000 0.000061 1.000000
vn 0.000000 0.000061 1.000000
vn 0.000000 -0.000015 1.000000
vn 0.000000 -0.000000 1.000000
vn 0.000000 -0.000046 1.000000
vn 0.000000 -0.000046 1.000000
vn 0.000000 -0.000046 1.000000
vn 0.000000 -0.000000 1.000000
vn 0.000000 -0.000000 1.000000
vn 1.000000 0.000000 0.000000
vn 1.000000 0.000000 0.000000
vn 1.000000 0.000000 0.000000
vn 1.000000 0.000000 0.000000
vn 1.000000 0.000000 0.000000
vn 1.000000 0.000000 0.000000
vn 0.000000 1.000000 0.000000
vn 0.000000 1.000000 0.000000
vn 0.000000 0.760499 -0.649339
vn 0.000000 0.760499 -0.649339
vn 0.000000 0.760495 -0.649344
vn 0.000000 1.000000 0.000000
vn 0.000000 0.760499 -0.649339
vn -0.000583 0.110816 -0.993841
vn -0.002301 0.113126 -0.993578
vn -0.002301 0.113126 -0.993578
vn 0.000000 0.760495 -0.649344
vn 0.000000 0.760499 -0.649339
vn 0.001132 -0.985486 0.169752
vn 0.002285 -0.992996 0.118122
vn 0.000000 -0.996801 -0.079918
vn 0.000000 -0.323941 -0.946077
vn 0.003554 0.055047 -0.998477
vn -0.006180 0.054958 -0.998470
vn -0.006180 0.054958 -0.998470
vn 0.000000 -0.323941 -0.946077
vn 0.000000 -0.323941 -0.946077
vn 0.000000 -0.941265 -0.337669
vn 0.000000 -0.941265 -0.337669
vn 0.000000 -0.727011 -0.686626
vn 0.000000 -0.727011 -0.686626
vn 0.000000 -0.727011 -0.686626
vn 0.000000 -0.941265 -0.337669
vn 0.000000 -0.996801 -0.079918
vn 0.000000 -0.996801 -0.079918
vn 0.000000 -0.941265 -0.337669
vn 0.000000 -0.941265 -0.337669
vn 0.000000 -0.941265 -0.337669
vn 0.000000 -0.996801 -0.079918
vn 0.000000 -0.000046 1.000000
vn 0.000000 -0.000046 1.000000
vn 0.000000 -0.000015 1.000000
vn 0.000000 -0.000015 1.000000
vn 0.000000 -0.000015 1.000000
vn 0.000000 -0.000046 1.000000
vn 0.000000 0.192220 0.981352
vn 0.000000 0.192220 0.981352
vn 0.000000 -0.185357 0.982671
vn 0.000000 -0.185357 0.982671
vn 0.000000 -0.185363 0.982670
vn 0.000000 0.192220 0.981352
vn 0.000000 -0.185357 0.982671
vn 0.000000 -0.648198 0.761472
vn 0.000000 -0.648197 0.761473
vn 0.000000 -0.648197 0.761473
vn 0.000000 -0.185363 0.982670
vn 0.000000 -0.185357 0.982671
vn -0.000764 -0.887878 0.460078
vn 0.000000 -0.890174 0.455621
vn -0.000052 -0.993581 0.113119
vn -0.000052 -0.993581 0.113119
vn -0.000568 -0.993121 0.117088
vn -0.000764 -0.887878 0.460078
vn -0.000000 0.993386 0.114827
vn 0.000000 1.000000 0.000000
vn 0.000000 1.000000 0.000000
vn 0.000000 1.000000 0.000000
vn -0.000013 0.993417 0.114559
vn -0.000000 0.993386 0.114827
vn 0.000000 1.000000 0.000000
vn 0.000000 1.000000 0.000000
vn -0.000013 0.993417 0.114559
vn 1.000000 0.000000 0.000000
vn 1.000000 0.000000 0.000000
vn 1.000000 0.000000 0.000000
vn 1.000000 0.000000 0.000000
vn 1.000000 0.000000 0.000000
vn 1.000000 0.000000 0.000000
vn 0.000000 0.625978 0.779841
vn 0.000000 0.625978 0.779841
vn 0.000000 0.909221 0.416313
vn 0.000000 0.909221 0.416313
vn -0.000013 0.909327 0.416082
vn 0.000000 0.625978 0.779841
vn 1.000000 0.000000 0.000000
vn 1.000000 0.000000 0.000000
vn 1.000000 0.000000 0.000000
vn 1.000000 0.000000 0.000000
vn 1.000000 0.000000 0.000000
vn 1.000000 0.000000 0.000000
vn -0.125084 0.122792 -0.984518
vn 0.040589 0.135981 -0.989880
vn -0.002301 0.113126 -0.993578
vn -0.002301 0.113126 -0.993578
vn -0.000583 0.110816 -0.993841
vn -0.125084 0.122792 -0.984518
vn -0.205995 0.007623 -0.978524
vn 0.029123 0.030876 -0.999099
vn 0.015497 0.016430 -0.999745
vn 0.015497 0.016430 -0.999745
vn -0.212854 0.000000 -0.977084
vn -0.205995 0.007623 -0.978524
vn -0.205995 0.007623 -0.978524
vn -0.212854 0.000000 -0.977084
vn -0.705781 0.000000 -0.708430
vn -0.705781 0.000000 -0.708430
vn -0.705781 0.000000 -0.708430
vn -0.205995 0.007623 -0.978524
vn -0.705781 0.000000 -0.708430
vn -0.705781 0.000000 -0.708430
vn -0.999697 0.000000 -0.024608
vn -0.999697 0.000000 -0.024608
vn -0.996766 -0.032826 -0.073344
vn -0.705781 0.000000 -0.708430
vn -0.996766 -0.032826 -0.073344
vn -0.999697 0.000000 -0.024608
vn -0.743351 -0.042087 0.667577
vn -0.743351 -0.042087 0.667577
vn -0.786452 -0.065535 0.614165
vn -0.996766 -0.032826 -0.073344
vn -0.786452 -0.065535 0.614165
vn -0.743351 -0.042087 0.667577
vn -0.229025 -0.019467 0.973226
vn -0.229025 -0.019467 0.973226
vn -0.224006 -0.000000 0.974588
vn -0.786452 -0.065535 0.614165
vn 0.000000 1.000000 0.000000
vn 0.000000 1.000000 0.000000
vn 0.000000 1.000000 0.000000
vn 0.000000 1.000000 0.000000
vn 0.000000 1.000000 0.000000
vn 0.000000 1.000000 0.000000
vn -0.229025 -0.019467 0.973226
vn 0.000000 -0.032245 0.999480
vn -0.014073 -0.016707 0.999761
vn -0.014073 -0.016707 0.999761
vn -0.224006 -0.000000 0.974588
vn -0.229025 -0.019467 0.973226
vn 0.000000 1.000000 0.000000
vn 0.000000 0.760499 -0.649339
vn 0.000000 1.000000 0.000000
vn 0.000000 0.760499 -0.649339
vn 0.000000 1.000000 0.000000
vn 0.000000 1.000000 0.000000
vn 0.000000 1.000000 0.000000
vn 0.000000 1.000000 0.000000
vn 0.000000 1.000000 0.000000
vn 0.000000 1.000000 0.000000
vn 0.000000 1.000000 0.000000
vn 0.000000 1.000000 0.000000
vn 0.000000 1.000000 0.000000
vn 0.000000 1.000000 0.000000
vn 0.000000 1.000000 0.000000
vn 0.000000 1.000000 0.000000
vn 0.000000 1.000000 0.000000
vn 0.000000 1.000000 0.000000
vn -0.000000 0.993386 0.114827
vn 0.000000 0.768562 -0.639775
vn -0.009621 0.767538 -0.640932
vn -0.009621 0.767538 -0.640932
vn 0.000000 1.000000 0.000000
vn -0.000000 0.993386 0.114827
vn 0.000000 1.000000 0.000000
vn 0.000000 1.000000 0.000000
vn 0.000000 1.000000 0.000000
vn 0.000000 1.000000 0.000000
vn 0.000000 1.000000 0.000000
vn 0.000000 1.000000 0.000000
vn 0.000000 0.760499 -0.649339
vn 0.000000 1.000000 0.000000
vn 0.000000 1.000000 0.000000
vn 1.000000 -0.000590 -0.000764
vn 1.000000 0.000000 -0.000960
vn 0.999997 -0.002245 -0.000217
vn 0.999997 -0.002245 -0.000217
vn 0.999996 -0.002900 -0.000000
vn 1.000000 -0.000590 -0.000764
vn -0.001999 0.326586 0.945165
vn -0.018302 0.182225 0.983087
vn -0.039770 0.171702 0.984346
vn -0.003748 -0.190919 0.981599
vn -0.039770 0.171702 0.984346
vn -0.018302 0.182225 0.983087
vn -0.018302 0.182225 0.983087
vn 0.000000 -0.186556 0.982444
vn -0.003748 -0.190919 0.981599
vn 0.002205 -0.887741 0.460339
vn 0.000000 -0.889405 0.457121
vn 0.000000 -0.647833 0.761783
vn 0.000000 -0.647833 0.761783
vn 0.000000 -0.647833 0.761783
vn 0.002205 -0.887741 0.460339
vn 0.001132 -0.985486 0.169752
vn 0.000000 -0.889405 0.457121
vn 0.002205 -0.887741 0.460339
vn 0.002205 -0.887741 0.460339
vn 0.002285 -0.992996 0.118122
vn 0.001132 -0.985486 0.169752
vn 0.000000 -0.996801 -0.079918
vn 0.002285 -0.992996 0.118122
vn -0.000568 -0.993121 0.117088
vn 0.000000 0.625978 0.779841
vn 0.000000 0.625978 0.779841
vn 0.001999 0.326592 0.945163
vn 0.001999 0.326592 0.945163
vn -0.001999 0.326586 0.945165
vn 0.000000 0.625978 0.779841
vn -0.000000 0.993386 0.114827
vn 0.000000 1.000000 0.000000
vn 0.000000 1.000000 0.000000
vn 1.000000 0.000000 0.000000
vn 1.000000 0.000000 0.000000
vn 1.000000 0.000000 0.000000
vn 1.000000 0.000000 0.000000
vn 1.000000 0.000000 0.000000
vn 1.000000 0.000000 0.000000
vn 0.000000 -0.961746 0.273942
vn 0.000000 -0.961746 0.273942
vn 0.000000 -0.961746 0.273942
vn 0.000000 -0.961746 0.273942
vn 0.000000 -0.961746 0.273942
vn 0.000000 -0.961746 0.273942
vn 1.000000 0.000000 0.000000
vn 1.000000 -0.000092 0.000017
vn 1.000000 -0.000737 -0.000162
vn 1.000000 -0.000737 -0.000162
vn 1.000000 0.000000 0.000000
vn 1.000000 0.000000 0.000000
vn 1.000000 -0.000737 -0.000162
vn 1.000000 -0.000092 0.000017
vn 1.000000 -0.000159 -0.000213
vn 1.000000 -0.000159 -0.000213
vn 1.000000 0.000441 -0.000681
vn 1.000000 -0.000737 -0.000162
vn -1.000000 0.000072 -0.000026
vn -1.000000 0.000246 -0.000012
vn -1.000000 0.000117 -0.000048
vn -1.000000 0.000117 -0.000048
vn -1.000000 -0.000002 -0.000015
vn -1.000000 0.000072 -0.000026
vn -1.000000 0.000000 -0.000000
vn -1.000000 0.000000 -0.000000
vn -1.000000 0.000000 -0.000000
vn -1.000000 0.000000 -0.000000
vn -1.000000 -0.000037 -0.000012
vn -1.000000 0.000000 -0.000000
vn 1.000000 0.000000 0.000000
vn 1.000000 0.000000 0.000000
vn 1.000000 0.000000 0.000000
vn 1.000000 0.000000 0.000000
vn 1.000000 0.000000 0.000000
vn 1.000000 0.000000 0.000000
vn 1.000000 0.000000 0.000000
vn 1.000000 0.000000 0.000000
vn 1.000000 0.000000 0.000000
vn 1.000000 0.000000 0.000000
vn 1.000000 0.000000 0.000000
vn 1.000000 0.000000 0.000000
vn 0.000000 -0.727011 -0.686626
vn 0.000000 -0.727011 -0.686626
vn 0.000000 -0.323941 -0.946077
vn 0.000000 -0.323941 -0.946077
vn 0.000000 -0.323941 -0.946077
vn 0.000000 -0.727011 -0.686626
vn 0.000000 -0.648197 0.761473
vn 0.000000 -0.648198 0.761472
vn 0.000000 -0.890174 0.455621
vn 0.000000 -0.890174 0.455621
vn -0.000764 -0.887878 0.460078
vn 0.000000 -0.648197 0.761473
vn 0.000000 -0.647833 0.761783
vn 0.000000 -0.647833 0.761783
vn -0.003748 -0.190919 0.981599
vn -0.003748 -0.190919 0.981599
vn 0.000000 -0.186556 0.982444
vn 0.000000 -0.647833 0.761783
vn 1.000000 0.000441 -0.000681
vn 1.000000 -0.000159 -0.000213
vn 0.999998 0.001961 -0.000964
vn 0.999998 0.001961 -0.000964
vn 0.999997 0.002338 -0.000860
vn 1.000000 0.000441 -0.000681
vn -1.000000 -0.000037 -0.000012
vn -1.000000 0.000072 -0.000026
vn -1.000000 -0.000002 -0.000015
vn -1.000000 -0.000002 -0.000015
vn -1.000000 0.000000 -0.000000
vn -1.000000 -0.000037 -0.000012
vn -0.125084 0.122792 -0.984518
vn -0.179826 0.142130 -0.973376
vn -0.006180 0.054958 -0.998470
vn -0.006180 0.054958 -0.998470
vn -0.000201 0.183791 -0.982965
vn -0.125084 0.122792 -0.984518
vn -1.000000 0.000000 -0.000000
vn -1.000000 0.000000 -0.000000
vn -1.000000 0.000000 -0.000000
vn -1.000000 0.000000 -0.000000
vn -1.000000 0.000000 -0.000000
vn -1.000000 0.000000 -0.000000
vn 0.000000 0.000000 -1.000000
vn 0.000000 0.000000 -1.000000
vn 0.000000 0.000000 -1.000000
vn 0.000000 0.000000 -1.000000
vn 0.000000 0.000000 -1.000000
vn 0.000000 0.000000 -1.000000
vn 0.000000 1.000000 0.000000
vn 0.000000 1.000000 0.000000
vn 0.000000 1.000000 0.000000
vn 0.000000 1.000000 0.000000
vn 0.000000 1.000000 0.000000
vn 0.000000 1.000000 0.000000
vn -0.179826 0.142130 -0.973376
vn -0.090006 0.130002 -0.987420
vn -0.009621 0.767538 -0.640932
vn -0.009621 0.767538 -0.640932
vn 0.000000 0.768562 -0.639775
vn -0.179826 0.142130 -0.973376
vn -0.090006 0.130002 -0.987420
vn -0.179826 0.142130 -0.973376
vn -0.125084 0.122792 -0.984518
vn -0.000583 0.110816 -0.993841
vn -0.090006 0.130002 -0.987420
vn -0.125084 0.122792 -0.984518
vn -1.000000 0.000000 -0.000000
vn -1.000000 0.000000 -0.000000
vn -1.000000 0.000000 -0.000000
vn 0.000000 -0.000000 1.000000
vn -0.000005 -0.000042 1.000000
vn 0.000000 0.000046 1.000000
vn 0.000000 0.000046 1.000000
vn 0.000000 -0.000000 1.000000
vn 0.000000 -0.000000 1.000000
vn -0.000000 0.010865 0.999941
vn -0.000010 0.010879 0.999941
vn -0.000009 0.021843 0.999761
vn -0.000009 0.021843 0.999761
vn 0.000000 0.021641 0.999766
vn -0.000000 0.010865 0.999941
vn -1.000000 0.000000 -0.000000
vn -1.000000 0.000000 -0.000000
vn -1.000000 0.000000 -0.000000
vn -1.000000 0.000000 -0.000000
vn -1.000000 0.000000 -0.000000
vn -1.000000 0.000000 -0.000000
vn 0.000000 -0.996801 -0.079918
vn 0.000000 -0.993581 0.113121
vn 0.000000 -0.985451 0.169962
vn -0.000000 0.010865 0.999941
vn 0.000000 0.000046 1.000000
vn -0.000005 -0.000042 1.000000
vn -0.000005 -0.000042 1.000000
vn -0.000010 0.010879 0.999941
vn -0.000000 0.010865 0.999941
vn -1.000000 0.000000 -0.000000
vn -1.000000 0.000000 -0.000000
vn -1.000000 0.000000 -0.000000
vn -1.000000 0.000000 -0.000000
vn -1.000000 0.000000 -0.000000
vn -1.000000 0.000000 -0.000000
vn -1.000000 0.000000 -0.000000
vn -1.000000 0.000000 -0.000000
vn -1.000000 0.000000 -0.000000
vn -1.000000 0.000000 -0.000000
vn -1.000000 0.000000 -0.000000
vn -1.000000 0.000000 -0.000000
vn -1.000000 0.000000 -0.000000
vn -1.000000 0.000000 -0.000000
vn -1.000000 0.000000 -0.000000
vn 0.000000 1.000000 0.000000
vn 0.000000 0.756564 -0.653920
vn 0.000000 0.756564 -0.653920
vn 0.000000 0.756564 -0.653920
vn -0.000013 0.993417 0.114559
vn 0.000000 1.000000 0.000000
vn -1.000000 -0.000585 -0.000758
vn -0.999996 -0.002874 -0.000000
vn -0.999997 -0.002224 -0.000215
vn -0.999997 -0.002224 -0.000215
vn -1.000000 0.000000 -0.000951
vn -1.000000 -0.000585 -0.000758
vn 0.038474 0.171291 0.984469
vn 0.017731 0.182555 0.983036
vn 0.001999 0.326592 0.945163
vn 0.003696 -0.190993 0.981585
vn 0.000000 -0.186556 0.982444
vn 0.017731 0.182555 0.983036
vn 0.017731 0.182555 0.983036
vn 0.038474 0.171291 0.984469
vn 0.003696 -0.190993 0.981585
vn 0.000000 -0.889405 0.457121
vn 0.000000 -0.647833 0.761783
vn 0.000000 -0.647833 0.761783
vn 0.000000 -0.647833 0.761783
vn 0.000000 -0.889405 0.457121
vn 0.000000 -0.889405 0.457121
vn 0.000000 -0.985451 0.169962
vn 0.000000 -0.993581 0.113121
vn 0.000000 -0.889405 0.457121
vn 0.000000 -0.889405 0.457121
vn 0.000000 -0.889405 0.457121
vn 0.000000 -0.985451 0.169962
vn 0.000000 -0.996801 -0.079918
vn -0.000052 -0.993581 0.113119
vn 0.000000 -0.993581 0.113121
vn -1.000000 0.000000 -0.000000
vn -1.000000 0.000000 -0.000000
vn -1.000000 0.000000 -0.000000
vn -1.000000 0.000000 -0.000000
vn -1.000000 0.000000 -0.000000
vn -1.000000 0.000000 -0.000000
vn 0.000000 -0.963320 0.268356
vn 0.000000 -0.963320 0.268356
vn 0.000000 -0.963320 0.268356
vn 0.000000 -0.963320 0.268356
vn 0.000000 -0.963320 0.268356
vn 0.000000 -0.963320 0.268356
vn -1.000000 0.000000 -0.000000
vn -1.000000 0.000000 -0.000000
vn -1.000000 -0.000753 -0.000140
vn -1.000000 -0.000753 -0.000140
vn -1.000000 -0.000123 0.000023
vn -1.000000 0.000000 -0.000000
vn -1.000000 -0.000753 -0.000140
vn -1.000000 0.000424 -0.000632
vn -1.000000 -0.000195 -0.000183
vn -1.000000 -0.000195 -0.000183
vn -1.000000 -0.000123 0.000023
vn -1.000000 -0.000753 -0.000140
vn 1.000000 0.000061 -0.000045
vn 1.000000 0.000025 -0.000041
vn 1.000000 0.000089 -0.000053
vn 1.000000 0.000089 -0.000053
vn 1.000000 0.000123 -0.000044
vn 1.000000 0.000061 -0.000045
vn 1.000000 0.000005 -0.000036
vn 1.000000 0.000003 -0.000038
vn 1.000000 -0.000001 -0.000034
vn 1.000000 -0.000001 -0.000034
vn 1.000000 -0.000002 -0.000035
vn 1.000000 0.000005 -0.000036
vn -1.000000 0.000000 -0.000000
vn -1.000000 0.000000 -0.000000
vn -1.000000 0.000000 -0.000000
vn -1.000000 0.000000 -0.000000
vn -1.000000 0.000000 -0.000000
vn -1.000000 0.000000 -0.000000
vn -1.000000 0.000000 -0.000000
vn -1.000000 0.000000 -0.000000
vn -1.000000 0.000000 -0.000000
vn -1.000000 0.000000 -0.000000
vn -1.000000 0.000000 -0.000000
vn -1.000000 0.000000 -0.000000
vn 0.000000 -0.647833 0.761783
vn 0.000000 -0.186556 0.982444
vn 0.003696 -0.190993 0.981585
vn 0.003696 -0.190993 0.981585
vn 0.000000 -0.647833 0.761783
vn 0.000000 -0.647833 0.761783
vn -1.000000 0.000424 -0.000632
vn -0.999997 0.002319 -0.000824
vn -0.999998 0.001996 -0.000909
vn -0.999998 0.001996 -0.000909
vn -1.000000 -0.000195 -0.000183
vn -1.000000 0.000424 -0.000632
vn 1.000000 0.000003 -0.000038
vn 1.000000 0.000005 -0.000036
vn 1.000000 0.000025 -0.000041
vn 1.000000 0.000025 -0.000041
vn 1.000000 0.000061 -0.000045
vn 1.000000 0.000003 -0.000038
vn 0.003554 0.055047 -0.998477
vn 0.018993 0.138971 -0.990114
vn 0.040589 0.135981 -0.989880
vn 0.040589 0.135981 -0.989880
vn 0.000115 0.183780 -0.982967
vn 0.003554 0.055047 -0.998477
vn 1.000000 0.000000 0.000000
vn 1.000000 0.000000 0.000000
vn 1.000000 0.000000 0.000000
vn 1.000000 0.000000 0.000000
vn 1.000000 0.000000 0.000000
vn 1.000000 0.000000 0.000000
vn 0.000000 0.000000 -1.000000
vn 0.000000 0.000000 -1.000000
vn 0.000000 0.000000 -1.000000
vn 0.000000 0.000000 -1.000000
vn 0.000000 0.000000 -1.000000
vn 0.000000 0.000000 -1.000000
vn 0.000000 1.000000 0.000000
vn 0.000000 1.000000 0.000000
vn 0.000000 1.000000 0.000000
vn 0.000000 1.000000 0.000000
vn 0.000000 1.000000 0.000000
vn 0.000000 1.000000 0.000000
vn 0.018993 0.138971 -0.990114
vn 0.000000 0.756564 -0.653920
vn 0.000000 0.756564 -0.653920
vn 0.000000 0.756564 -0.653920
vn -0.003107 0.115533 -0.993299
vn 0.018993 0.138971 -0.990114
vn -0.003107 0.115533 -0.993299
vn 0.040589 0.135981 -0.989880
vn 0.018993 0.138971 -0.990114
vn -0.002301 0.113126 -0.993578
vn 0.040589 0.135981 -0.989880
vn -0.003107 0.115533 -0.993299
vn 0.999008 -0.044535 -0.000000
vn 0.999008 -0.044535 -0.000000
vn 0.999008 -0.044535 -0.000000
vn 0.999008 -0.044535 -0.000000
vn 0.999008 -0.044535 -0.000000
vn 0.999008 -0.044535 -0.000000
vn 0.000000 1.000000 0.000000
vn 0.000000 1.000000 0.000000
vn 0.000000 1.000000 0.000000
vn 0.000000 1.000000 0.000000
vn 0.000000 1.000000 0.000000
vn 0.000000 1.000000 0.000000
vn -0.006180 0.054958 -0.998470
vn 0.003554 0.055047 -0.998477
vn 0.000115 0.183780 -0.982967
vn 0.000115 0.183780 -0.982967
vn -0.000201 0.183791 -0.982965
vn -0.006180 0.054958 -0.998470
vn -0.000052 -0.993581 0.113119
vn 0.000000 -0.996801 -0.079918
vn 0.000000 -0.996801 -0.079918
vn 0.000000 -0.996801 -0.079918
vn -0.000568 -0.993121 0.117088
vn -0.000052 -0.993581 0.113119
vn 0.000000 0.192220 0.981352
vn 0.000000 0.192220 0.981352
vn -0.001999 0.326586 0.945165
vn -0.001999 0.326586 0.945165
vn 0.001999 0.326592 0.945163
vn 0.000000 0.192220 0.981352
vn 0.000000 0.192220 0.981352
vn -0.018302 0.182225 0.983087
vn -0.001999 0.326586 0.945165
vn 1.000000 0.000000 0.000000
vn 1.000000 0.000000 0.000000
vn 1.000000 0.000000 0.000000
vn 1.000000 0.000000 0.000000
vn 1.000000 0.000000 0.000000
vn 1.000000 0.000000 0.000000
vn -0.002111 0.997274 -0.073753
vn 0.000000 0.998710 -0.050777
vn -0.000131 0.998637 -0.052200
vn -0.000131 0.998637 -0.052200
vn -0.002242 0.997168 -0.075173
vn -0.002111 0.997274 -0.073753
vn 0.000000 -0.969054 -0.246850
vn 0.000000 -0.969054 -0.246850
vn 0.000000 -0.969054 -0.246850
vn 0.000000 -0.969054 -0.246850
vn 0.000000 -0.969054 -0.246850
vn 0.000000 -0.969054 -0.246850
vn -1.000000 0.000000 -0.000000
vn -1.000000 0.000000 -0.000000
vn -1.000000 0.000000 -0.000000
vn -1.000000 0.000000 -0.000000
vn -1.000000 0.000000 -0.000000
vn -1.000000 0.000000 -0.000000
vn -0.000020 0.012188 -0.999926
vn -0.000027 0.012205 -0.999925
vn -0.000007 0.012156 -0.999926
vn -0.000007 0.012156 -0.999926
vn 0.000000 0.012140 -0.999926
vn -0.000020 0.012188 -0.999926
vn 0.000000 1.000000 0.000000
vn 0.000000 1.000000 0.000000
vn 0.000000 0.760499 -0.649339
vn -0.000007 0.939690 0.342028
vn -0.000010 0.939690 0.342026
vn -0.000002 0.422630 0.906302
vn -0.000002 0.422630 0.906302
vn 0.000000 0.422621 0.906307
vn -0.000007 0.939690 0.342028
vn 0.000002 0.939693 0.342019
vn 0.000000 0.939693 0.342018
vn 0.000007 0.939690 0.342028
vn 0.000007 0.939690 0.342028
vn 0.000007 0.939690 0.342029
vn 0.000002 0.939693 0.342019
vn -0.000007 -0.939694 -0.342015
vn 0.000000 -0.939692 -0.342022
vn -0.000003 -0.939692 -0.342022
vn -0.000003 -0.939692 -0.342022
vn -0.000011 -0.939694 -0.342017
vn -0.000007 -0.939694 -0.342015
vn 0.000003 -0.939691 -0.342025
vn 0.000008 -0.939695 -0.342014
vn 0.000008 -0.939695 -0.342015
vn 0.000008 -0.939695 -0.342015
vn 0.000000 -0.939691 -0.342025
vn 0.000003 -0.939691 -0.342025
vn 1.000000 0.000000 -0.000000
vn 1.000000 -0.000003 -0.000008
vn 1.000000 -0.000068 -0.000037
vn -1.000000 -0.000030 -0.000011
vn -1.000000 -0.000030 -0.000011
vn -1.000000 -0.000030 -0.000011
vn -1.000000 -0.000030 -0.000011
vn -1.000000 -0.000030 -0.000011
vn -1.000000 -0.000030 -0.000011
vn 0.000000 0.342012 -0.939695
vn 0.000000 0.342012 -0.939696
vn 0.000000 0.759572 -0.650423
vn 0.000000 0.759572 -0.650423
vn 0.000000 0.759578 -0.650416
vn 0.000000 0.342012 -0.939695
vn 1.000000 0.000000 0.000000
vn 1.000000 0.000000 0.000000
vn 1.000000 0.000000 0.000000
vn 1.000000 0.000000 0.000000
vn 1.000000 0.000000 0.000000
vn 1.000000 0.000000 0.000000
vn -1.000000 0.000000 -0.000000
vn -1.000000 0.000000 -0.000000
vn -1.000000 0.000000 -0.000000
vn -0.000007 -0.939694 -0.342015
vn -0.000011 -0.939694 -0.342017
vn 0.000008 -0.939695 -0.342015
vn 0.000008 -0.939695 -0.342015
vn 0.000008 -0.939695 -0.342014
vn -0.000007 -0.939694 -0.342015
vn 0.000000 -0.342023 0.939691
vn 0.000000 -0.342024 0.939691
vn 0.000000 -0.342024 0.939691
vn 0.000000 -0.342024 0.939691
vn 0.000000 -0.342023 0.939691
vn 0.000000 -0.342023 0.939691
vn -0.000010 0.939690 0.342026
vn -0.000007 0.939690 0.342028
vn 0.000007 0.939690 0.342029
vn 0.000007 0.939690 0.342029
vn 0.000007 0.939690 0.342028
vn -0.000010 0.939690 0.342026
vn 1.000000 0.000000 -0.000000
vn 1.000000 0.000000 0.000000
vn 1.000000 0.000084 0.000035
vn 1.000000 0.000000 -0.000000
vn 1.000000 0.000084 0.000035
vn 1.000000 -0.000003 -0.000008
vn 1.000000 0.000000 0.000000
vn 1.000000 0.000000 0.000000
vn 1.000000 0.000000 -0.000000
vn 1.000000 0.000000 -0.000000
vn 1.000000 -0.000068 -0.000037
vn 1.000000 0.000000 0.000000
vn 0.000000 0.422621 0.906307
vn -0.000002 0.422630 0.906302
vn 0.000000 -0.342013 0.939695
vn 0.000000 -0.342013 0.939695
vn 0.000000 -0.342013 0.939695
vn 0.000000 0.422621 0.906307
vn 0.000000 -0.376141 -0.926563
vn 0.000000 -0.376141 -0.926563
vn 0.000000 -0.163810 -0.986492
vn 0.000000 -0.163810 -0.986492
vn 0.000000 -0.163819 -0.986490
vn 0.000000 -0.376141 -0.926563
vn 0.000000 -0.163819 -0.986490
vn 0.000000 -0.163810 -0.986492
vn 0.000000 0.342012 -0.939696
vn 0.000000 0.342012 -0.939696
vn 0.000000 0.342012 -0.939695
vn 0.000000 -0.163819 -0.986490
vn 0.000000 0.759572 -0.650423
vn 0.000000 0.883705 -0.468045
vn 0.000000 0.883705 -0.468045
vn 0.000000 0.883705 -0.468045
vn 0.000000 0.759578 -0.650416
vn 0.000000 0.759572 -0.650423
vn 0.000000 -0.342013 0.939695
vn 0.000000 -0.342013 0.939695
vn 0.000000 -0.342013 0.939695
vn 0.000000 -0.342013 0.939695
vn 0.000000 -0.342013 0.939695
vn 0.000000 -0.342013 0.939695
vn -1.000000 0.000000 -0.000000
vn -1.000000 0.000000 -0.000000
vn -1.000000 0.000000 -0.000000
vn -1.000000 0.000000 -0.000000
vn -1.000000 0.000000 -0.000000
vn -1.000000 0.000000 -0.000000
vn -1.000000 0.000000 -0.000000
vn -1.000000 0.000000 -0.000000
vn -1.000000 0.000000 -0.000000
vn -1.000000 0.000000 -0.000000
vn -1.000000 0.000000 -0.000000
vn -1.000000 0.000000 -0.000000
vn 0.000022 -0.965926 0.258820
vn 0.000101 -0.965934 0.258787
vn -0.195087 -0.947404 0.253706
vn -0.195087 -0.947404 0.253706
vn -0.282863 -0.925397 0.252250
vn 0.000022 -0.965926 0.258820
vn -1.000000 0.000002 0.000000
vn -1.000000 -0.000118 0.000012
vn -0.908831 0.408464 -0.084752
vn -0.908831 0.408464 -0.084752
vn -0.923860 0.369691 -0.099053
vn -1.000000 0.000002 0.000000
vn -0.712939 0.685813 -0.146213
vn -0.923860 0.369691 -0.099053
vn -0.908831 0.408464 -0.084752
vn -0.908831 0.408464 -0.084752
vn -0.627449 0.760499 -0.167179
vn -0.712939 0.685813 -0.146213
vn -0.383345 0.893068 -0.235536
vn -0.712939 0.685813 -0.146213
vn -0.627449 0.760499 -0.167179
vn -0.627449 0.760499 -0.167179
vn -0.282855 0.927551 -0.244218
vn -0.383345 0.893068 -0.235536
vn -0.195078 0.947355 -0.253896
vn -0.000000 0.965910 -0.258877
vn -0.000010 0.965921 -0.258839
vn -0.000010 0.965921 -0.258839
vn -0.282855 0.927551 -0.244218
vn -0.195078 0.947355 -0.253896
vn 0.000005 0.258818 0.965926
vn 0.000167 0.258826 0.965924
vn 0.000188 0.258823 0.965925
vn 0.000188 0.258823 0.965925
vn 0.000066 0.258823 0.965925
vn 0.000005 0.258818 0.965926
vn -1.000000 -0.000118 0.000012
vn -1.000000 0.000002 0.000000
vn -0.916726 -0.376961 0.132343
vn -0.916726 -0.376961 0.132343
vn -0.919031 -0.368626 0.139634
vn -1.000000 -0.000118 0.000012
vn -0.919031 -0.368626 0.139634
vn -0.916726 -0.376961 0.132343
vn -0.721360 -0.653958 0.227989
vn -0.721360 -0.653958 0.227989
vn -0.635828 -0.734680 0.236578
vn -0.919031 -0.368626 0.139634
vn -0.635828 -0.734680 0.236578
vn -0.721360 -0.653958 0.227989
vn -0.383327 -0.891193 0.242559
vn -0.383327 -0.891193 0.242559
vn -0.282863 -0.925397 0.252250
vn -0.635828 -0.734680 0.236578
vn -0.953709 0.077837 0.290482
vn -0.852945 0.135109 0.504212
vn -0.852939 0.135111 0.504222
vn -0.852939 0.135111 0.504222
vn -0.953708 0.077838 0.290487
vn -0.953709 0.077837 0.290482
vn -0.852945 0.135109 0.504212
vn -0.557629 0.213809 0.802082
vn -0.559170 0.214581 0.800802
vn -0.559170 0.214581 0.800802
vn -0.852939 0.135111 0.504222
vn -0.852945 0.135109 0.504212
vn -0.557629 0.213809 0.802082
vn -0.353238 0.218091 0.909758
vn -0.409133 0.243905 0.879273
vn -0.386892 0.240858 0.890114
vn -0.559170 0.214581 0.800802
vn -0.557629 0.213809 0.802082
vn -0.557629 0.213809 0.802082
vn -0.409133 0.243905 0.879273
vn -0.386892 0.240858 0.890114
vn 0.195155 -0.947345 0.253874
vn 0.000101 -0.965934 0.258787
vn 0.000022 -0.965926 0.258820
vn 0.000022 -0.965926 0.258820
vn 0.282870 -0.925374 0.252324
vn 0.195155 -0.947345 0.253874
vn 1.000000 0.000002 0.000000
vn 0.923885 0.369633 -0.099038
vn 0.908855 0.408413 -0.084739
vn 0.908855 0.408413 -0.084739
vn 1.000000 -0.000123 0.000043
vn 1.000000 0.000002 0.000000
vn 0.712939 0.685813 -0.146213
vn 0.627449 0.760499 -0.167179
vn 0.908855 0.408413 -0.084739
vn 0.908855 0.408413 -0.084739
vn 0.923885 0.369633 -0.099038
vn 0.712939 0.685813 -0.146213
vn 0.383333 0.893072 -0.235538
vn 0.282839 0.927558 -0.244209
vn 0.627449 0.760499 -0.167179
vn 0.627449 0.760499 -0.167179
vn 0.712939 0.685813 -0.146213
vn 0.383333 0.893072 -0.235538
vn 0.195061 0.947363 -0.253878
vn 0.282839 0.927558 -0.244209
vn -0.000010 0.965921 -0.258839
vn -0.000010 0.965921 -0.258839
vn -0.000000 0.965910 -0.258877
vn 0.195061 0.947363 -0.253878
vn -0.000068 0.258822 0.965925
vn -0.000171 0.258808 0.965929
vn 0.000005 0.258818 0.965926
vn 0.000005 0.258818 0.965926
vn 0.000066 0.258823 0.965925
vn -0.000068 0.258822 0.965925
vn 1.000000 -0.000123 0.000043
vn 0.919021 -0.368604 0.139755
vn 0.916749 -0.376884 0.132400
vn 0.916749 -0.376884 0.132400
vn 1.000000 0.000002 0.000000
vn 1.000000 -0.000123 0.000043
vn 0.919021 -0.368604 0.139755
vn 0.635816 -0.734683 0.236601
vn 0.721336 -0.653957 0.228068
vn 0.721336 -0.653957 0.228068
vn 0.916749 -0.376884 0.132400
vn 0.919021 -0.368604 0.139755
vn 0.635816 -0.734683 0.236601
vn 0.282870 -0.925374 0.252324
vn 0.383309 -0.891201 0.242559
vn 0.383309 -0.891201 0.242559
vn 0.721336 -0.653957 0.228068
vn 0.635816 -0.734683 0.236601
vn 0.852881 0.135133 0.504315
vn 0.852888 0.135127 0.504304
vn 0.953652 0.077884 0.290658
vn 0.953652 0.077884 0.290658
vn 0.953639 0.077889 0.290699
vn 0.852881 0.135133 0.504315
vn 0.559234 0.214565 0.800762
vn 0.557619 0.213787 0.802095
vn 0.852888 0.135127 0.504304
vn 0.852888 0.135127 0.504304
vn 0.852881 0.135133 0.504315
vn 0.559234 0.214565 0.800762
vn 0.557619 0.213787 0.802095
vn 0.409116 0.243871 0.879290
vn 0.353168 0.218036 0.909798
vn 0.386927 0.240838 0.890104
vn 0.409116 0.243871 0.879290
vn 0.557619 0.213787 0.802095
vn 0.557619 0.213787 0.802095
vn 0.559234 0.214565 0.800762
vn 0.386927 0.240838 0.890104
vn 0.282839 0.927558 -0.244209
vn 0.383333 0.893072 -0.235538
vn -0.000013 0.965925 -0.258821
vn -0.000013 0.965925 -0.258821
vn -0.000010 0.965921 -0.258839
vn 0.282839 0.927558 -0.244209
vn -0.000013 0.965925 -0.258821
vn -0.383345 0.893068 -0.235536
vn -0.282855 0.927551 -0.244218
vn -0.282855 0.927551 -0.244218
vn -0.000010 0.965921 -0.258839
vn -0.000013 0.965925 -0.258821
vn -0.282863 -0.925397 0.252250
vn -0.383327 -0.891193 0.242559
vn -0.000005 -0.965916 0.258855
vn -0.000005 -0.965916 0.258855
vn 0.000022 -0.965926 0.258820
vn -0.282863 -0.925397 0.252250
vn -0.000005 -0.965916 0.258855
vn 0.383309 -0.891201 0.242559
vn 0.282870 -0.925374 0.252324
vn 0.282870 -0.925374 0.252324
vn 0.000022 -0.965926 0.258820
vn -0.000005 -0.965916 0.258855
vn -0.000000 -0.258817 -0.965926
vn -0.000097 -0.258734 -0.965949
vn -0.000185 -0.258649 -0.965971
vn 0.000000 -0.258817 -0.965926
vn 0.000185 -0.258649 -0.965971
vn 0.000097 -0.258734 -0.965949
vn -0.000000 -0.258817 -0.965926
vn 0.000202 -0.258929 -0.965896
vn -0.000097 -0.258734 -0.965949
vn 0.000000 -0.258817 -0.965926
vn 0.000097 -0.258734 -0.965949
vn -0.000202 -0.258929 -0.965896
vn -0.000000 -0.258817 -0.965926
vn 0.000014 -0.258866 -0.965913
vn 0.000202 -0.258929 -0.965896
vn -0.000000 -0.258817 -0.965926
vn 0.000033 -0.258838 -0.965921
vn -0.000107 -0.258830 -0.965923
vn -0.000107 -0.258830 -0.965923
vn 0.000014 -0.258866 -0.965913
vn -0.000000 -0.258817 -0.965926
vn -0.000000 -0.258828 -0.965923
vn -0.000000 -0.258847 -0.965918
vn 0.000033 -0.258838 -0.965921
vn 0.000033 -0.258838 -0.965921
vn -0.000000 -0.258817 -0.965926
vn -0.000000 -0.258828 -0.965923
vn -0.000000 -0.258828 -0.965923
vn 0.000000 -0.258817 -0.965926
vn -0.000034 -0.258838 -0.965921
vn -0.000034 -0.258838 -0.965921
vn -0.000000 -0.258847 -0.965918
vn -0.000000 -0.258828 -0.965923
vn 0.000000 -0.258817 -0.965926
vn -0.000202 -0.258929 -0.965896
vn -0.000014 -0.258866 -0.965913
vn 0.000107 -0.258830 -0.965923
vn -0.000034 -0.258838 -0.965921
vn 0.000000 -0.258817 -0.965926
vn 0.000000 -0.258817 -0.965926
vn -0.000014 -0.258866 -0.965913
vn 0.000107 -0.258830 -0.965923
vn 0.000000 0.951077 0.308954
vn 0.000000 0.951077 0.308954
vn 0.000000 0.973863 0.227136
vn 0.000000 0.973863 0.227136
vn 0.000000 0.973863 0.227136
vn 0.000000 0.951077 0.308954
vn 0.000000 0.973863 0.227136
vn 0.000000 0.973863 0.227136
vn 0.000000 0.994447 0.105234
vn 0.000000 0.994447 0.105234
vn 0.000000 0.994447 0.105234
vn 0.000000 0.973863 0.227136
vn 0.000000 0.994447 0.105234
vn 0.000000 0.994447 0.105234
vn 0.000000 0.997484 0.070893
vn 0.000000 0.997484 0.070893
vn 0.000000 0.997484 0.070893
vn 0.000000 0.994447 0.105234
vn 0.000000 0.997172 0.075154
vn 0.000000 0.997484 0.070893
vn 0.000000 0.997484 0.070893
vn 0.000000 0.997484 0.070893
vn 0.000000 0.997172 0.075154
vn 0.000000 0.997172 0.075154
vn 0.999975 0.006559 0.002690
vn 0.999974 0.006687 0.002630
vn 0.981898 -0.183988 0.044992
vn 0.981898 -0.183988 0.044992
vn 0.960748 -0.268910 0.068204
vn 0.999975 0.006559 0.002690
vn 0.005820 -0.976011 0.217643
vn 0.005900 -0.976012 0.217636
vn -0.411217 -0.884602 0.219956
vn -0.411217 -0.884602 0.219956
vn -0.377267 -0.904244 0.200031
vn 0.005820 -0.976011 0.217643
vn -0.696284 -0.692525 0.188673
vn -0.377267 -0.904244 0.200031
vn -0.411217 -0.884602 0.219956
vn -0.411217 -0.884602 0.219956
vn -0.774398 -0.609713 0.168990
vn -0.696284 -0.692525 0.188673
vn -0.921360 -0.379410 0.084522
vn -0.696284 -0.692525 0.188673
vn -0.774398 -0.609713 0.168990
vn -0.774398 -0.609713 0.168990
vn -0.957505 -0.281435 0.063083
vn -0.921360 -0.379410 0.084522
vn -0.979611 -0.196946 0.039678
vn -0.999974 -0.006620 -0.002981
vn -0.999974 -0.006644 -0.002713
vn -0.999974 -0.006644 -0.002713
vn -0.957505 -0.281435 0.063083
vn -0.979611 -0.196946 0.039678
vn -0.004080 0.217682 0.976011
vn -0.004082 0.217593 0.976031
vn -0.004060 0.217751 0.975996
vn -0.004060 0.217751 0.975996
vn -0.004057 0.217681 0.976012
vn -0.004080 0.217682 0.976011
vn 0.005900 -0.976012 0.217636
vn 0.005820 -0.976011 0.217643
vn 0.403587 -0.885505 0.230213
vn 0.403587 -0.885505 0.230213
vn 0.397428 -0.885776 0.239690
vn 0.005900 -0.976012 0.217636
vn 0.397428 -0.885776 0.239690
vn 0.403587 -0.885505 0.230213
vn 0.694692 -0.688378 0.208661
vn 0.694692 -0.688378 0.208661
vn 0.774366 -0.607196 0.177962
vn 0.397428 -0.885776 0.239690
vn 0.774366 -0.607196 0.177962
vn 0.694692 -0.688378 0.208661
vn 0.925790 -0.367292 0.089495
vn 0.925790 -0.367292 0.089495
vn 0.960748 -0.268910 0.068204
vn 0.774366 -0.607196 0.177962
vn 0.004302 -0.865362 0.501129
vn 0.002827 -0.718788 0.695224
vn 0.002826 -0.718789 0.695223
vn 0.002826 -0.718789 0.695223
vn 0.004327 -0.865271 0.501287
vn 0.004302 -0.865362 0.501129
vn 0.002827 -0.718788 0.695224
vn 0.000972 -0.363342 0.931655
vn -0.000133 -0.365241 0.930913
vn -0.000133 -0.365241 0.930913
vn 0.002826 -0.718789 0.695223
vn 0.002827 -0.718788 0.695224
vn 0.000972 -0.363342 0.931655
vn 0.023257 -0.140659 0.989785
vn -0.009372 -0.200807 0.979586
vn -0.003766 -0.176825 0.984235
vn -0.000133 -0.365241 0.930913
vn 0.000972 -0.363342 0.931655
vn 0.000972 -0.363342 0.931655
vn -0.009372 -0.200807 0.979586
vn -0.003766 -0.176825 0.984235
vn 0.979618 0.196894 -0.039764
vn 0.999974 0.006687 0.002630
vn 0.999975 0.006559 0.002690
vn 0.999975 0.006559 0.002690
vn 0.957468 0.283274 -0.054865
vn 0.979618 0.196894 -0.039764
vn -0.005863 0.975957 -0.217885
vn -0.388067 0.899170 -0.202231
vn -0.421797 0.889489 -0.175774
vn -0.421797 0.889489 -0.175774
vn -0.005771 0.975961 -0.217870
vn -0.005863 0.975957 -0.217885
vn -0.704600 0.699094 -0.121682
vn -0.781654 0.614945 -0.104208
vn -0.421797 0.889489 -0.175774
vn -0.421797 0.889489 -0.175774
vn -0.388067 0.899170 -0.202231
vn -0.704600 0.699094 -0.121682
vn -0.925801 0.368906 -0.082468
vn -0.960805 0.270637 -0.060073
vn -0.781654 0.614945 -0.104208
vn -0.781654 0.614945 -0.104208
vn -0.704600 0.699094 -0.121682
vn -0.925801 0.368906 -0.082468
vn -0.981904 0.183901 -0.045230
vn -0.960805 0.270637 -0.060073
vn -0.999974 -0.006644 -0.002713
vn -0.999974 -0.006644 -0.002713
vn -0.999974 -0.006620 -0.002981
vn -0.981904 0.183901 -0.045230
vn -0.004059 0.217610 0.976027
vn -0.004083 0.217771 0.975991
vn -0.004080 0.217682 0.976011
vn -0.004080 0.217682 0.976011
vn -0.004057 0.217681 0.976012
vn -0.004059 0.217610 0.976027
vn -0.005771 0.975961 -0.217870
vn 0.386733 0.908133 -0.160415
vn 0.392858 0.903947 -0.168947
vn 0.392858 0.903947 -0.168947
vn -0.005863 0.975957 -0.217885
vn -0.005771 0.975961 -0.217870
vn 0.386733 0.908133 -0.160415
vn 0.766966 0.634015 -0.098932
vn 0.686247 0.719687 -0.105432
vn 0.686247 0.719687 -0.105432
vn 0.392858 0.903947 -0.168947
vn 0.386733 0.908133 -0.160415
vn 0.766966 0.634015 -0.098932
vn 0.957468 0.283274 -0.054865
vn 0.921345 0.380954 -0.077443
vn 0.921345 0.380954 -0.077443
vn 0.686247 0.719687 -0.105432
vn 0.766966 0.634015 -0.098932
vn -0.007106 0.946060 0.323914
vn -0.007108 0.946070 0.323884
vn -0.006792 0.996278 0.085933
vn -0.006792 0.996278 0.085933
vn -0.006783 0.996273 0.085995
vn -0.007106 0.946060 0.323914
vn -0.006649 0.726159 0.687495
vn -0.005545 0.724847 0.688888
vn -0.007108 0.946070 0.323884
vn -0.007108 0.946070 0.323884
vn -0.007106 0.946060 0.323914
vn -0.006649 0.726159 0.687495
vn -0.005545 0.724847 0.688888
vn -0.014104 0.597943 0.801415
vn 0.019135 0.548287 0.836071
vn -0.008284 0.578405 0.815708
vn -0.014104 0.597943 0.801415
vn -0.005545 0.724847 0.688888
vn -0.005545 0.724847 0.688888
vn -0.006649 0.726159 0.687495
vn -0.008284 0.578405 0.815708
vn -0.960805 0.270637 -0.060073
vn -0.925801 0.368906 -0.082468
vn -0.999975 -0.006561 -0.002674
vn -0.999975 -0.006561 -0.002674
vn -0.999974 -0.006644 -0.002713
vn -0.960805 0.270637 -0.060073
vn -0.999975 -0.006561 -0.002674
vn -0.921360 -0.379410 0.084522
vn -0.957505 -0.281435 0.063083
vn -0.957505 -0.281435 0.063083
vn -0.999974 -0.006644 -0.002713
vn -0.999975 -0.006561 -0.002674
vn 0.960748 -0.268910 0.068204
vn 0.925790 -0.367292 0.089495
vn 0.999975 0.006539 0.002708
vn 0.999975 0.006539 0.002708
vn 0.999975 0.006559 0.002690
vn 0.960748 -0.268910 0.068204
vn 0.999975 0.006539 0.002708
vn 0.921345 0.380954 -0.077443
vn 0.957468 0.283274 -0.054865
vn 0.957468 0.283274 -0.054865
vn 0.999975 0.006559 0.002690
vn 0.999975 0.006539 0.002708
vn 0.004066 -0.217680 -0.976012
vn 0.003893 -0.217960 -0.975950
vn 0.003676 -0.218175 -0.975903
vn 0.004065 -0.217688 -0.976010
vn 0.003993 -0.217626 -0.976024
vn 0.003870 -0.217507 -0.976051
vn 0.004066 -0.217680 -0.976012
vn 0.004174 -0.217552 -0.976040
vn 0.003893 -0.217960 -0.975950
vn 0.004065 -0.217688 -0.976010
vn 0.003870 -0.217507 -0.976051
vn 0.004167 -0.217940 -0.975953
vn 0.004066 -0.217680 -0.976012
vn 0.004111 -0.217744 -0.975997
vn 0.004174 -0.217552 -0.976040
vn 0.004066 -0.217680 -0.976012
vn 0.004078 -0.217768 -0.975992
vn 0.004098 -0.217731 -0.976000
vn 0.004098 -0.217731 -0.976000
vn 0.004111 -0.217744 -0.975997
vn 0.004066 -0.217680 -0.976012
vn 0.004087 -0.217649 -0.976019
vn 0.004058 -0.217703 -0.976007
vn 0.004078 -0.217768 -0.975992
vn 0.004078 -0.217768 -0.975992
vn 0.004066 -0.217680 -0.976012
vn 0.004087 -0.217649 -0.976019
vn 0.004087 -0.217649 -0.976019
vn 0.004065 -0.217688 -0.976010
vn 0.004066 -0.217649 -0.976019
vn 0.004066 -0.217649 -0.976019
vn 0.004058 -0.217703 -0.976007
vn 0.004087 -0.217649 -0.976019
vn 0.004065 -0.217688 -0.976010
vn 0.004167 -0.217940 -0.975953
vn 0.004086 -0.217706 -0.976006
vn 0.004071 -0.217724 -0.976002
vn 0.004066 -0.217649 -0.976019
vn 0.004065 -0.217688 -0.976010
vn 0.004065 -0.217688 -0.976010
vn 0.004086 -0.217706 -0.976006
vn 0.004071 -0.217724 -0.976002
vn -0.943722 -0.322762 0.072210
vn -0.943710 -0.322778 0.072291
vn -0.990043 -0.139055 0.021880
vn -0.990043 -0.139055 0.021880
vn -0.998694 -0.051033 0.002436
vn -0.943722 -0.322762 0.072210
vn -0.330355 0.910053 -0.250338
vn -0.330405 0.910017 -0.250403
vn 0.092431 0.967710 -0.234509
vn 0.092431 0.967710 -0.234509
vn 0.055909 0.964319 -0.258770
vn -0.330355 0.910053 -0.250338
vn 0.424763 0.884253 -0.194096
vn 0.055909 0.964319 -0.258770
vn 0.092431 0.967710 -0.234509
vn 0.092431 0.967710 -0.234509
vn 0.526271 0.831224 -0.179180
vn 0.424763 0.884253 -0.194096
vn 0.744937 0.647865 -0.159184
vn 0.424763 0.884253 -0.194096
vn 0.526271 0.831224 -0.179180
vn 0.526271 0.831224 -0.179180
vn 0.811694 0.568018 -0.136046
vn 0.744937 0.647865 -0.159184
vn 0.861158 0.494022 -0.119790
vn 0.943740 0.322660 -0.072419
vn 0.943739 0.322695 -0.072276
vn 0.943739 0.322695 -0.072276
vn 0.811694 0.568018 -0.136046
vn 0.861158 0.494022 -0.119790
vn -0.015080 0.260163 0.965447
vn -0.015045 0.260100 0.965464
vn -0.015033 0.260043 0.965480
vn -0.015033 0.260043 0.965480
vn -0.015053 0.260095 0.965466
vn -0.015080 0.260163 0.965447
vn -0.330405 0.910017 -0.250403
vn -0.330355 0.910053 -0.250338
vn -0.679185 0.713625 -0.171600
vn -0.679185 0.713625 -0.171600
vn -0.674343 0.720051 -0.163667
vn -0.330405 0.910017 -0.250403
vn -0.674343 0.720051 -0.163667
vn -0.679185 0.713625 -0.171600
vn -0.890917 0.446803 -0.081455
vn -0.890917 0.446803 -0.081455
vn -0.938128 0.339859 -0.066416
vn -0.674343 0.720051 -0.163667
vn -0.938128 0.339859 -0.066416
vn -0.890917 0.446803 -0.081455
vn -0.998332 0.051695 -0.025716
vn -0.998332 0.051695 -0.025716
vn -0.998694 -0.051033 0.002436
vn -0.938128 0.339859 -0.066416
vn -0.319624 0.946138 0.051603
vn -0.289649 0.911985 0.290494
vn -0.289655 0.911980 0.290504
vn -0.289655 0.911980 0.290504
vn -0.319624 0.946139 0.051591
vn -0.319624 0.946138 0.051603
vn -0.289649 0.911985 0.290494
vn -0.197732 0.723028 0.661916
vn -0.197195 0.724451 0.660519
vn -0.197195 0.724451 0.660519
vn -0.289655 0.911980 0.290504
vn -0.289649 0.911985 0.290494
vn -0.197732 0.723028 0.661916
vn -0.154287 0.556613 0.816320
vn -0.141372 0.612413 0.777794
vn -0.139588 0.592781 0.793174
vn -0.197195 0.724451 0.660519
vn -0.197732 0.723028 0.661916
vn -0.197732 0.723028 0.661916
vn -0.141372 0.612413 0.777794
vn -0.139588 0.592781 0.793174
vn -0.861129 -0.494108 0.119643
vn -0.943710 -0.322778 0.072291
vn -0.943722 -0.322762 0.072210
vn -0.943722 -0.322762 0.072210
vn -0.811775 -0.565910 0.144108
vn -0.861129 -0.494108 0.119643
vn 0.330357 -0.910046 0.250362
vn 0.666418 -0.717249 0.203569
vn 0.692903 -0.686509 0.220431
vn 0.692903 -0.686509 0.220431
vn 0.330248 -0.910078 0.250388
vn 0.330357 -0.910046 0.250362
vn 0.895828 -0.413468 0.162898
vn 0.940854 -0.310748 0.135017
vn 0.692903 -0.686509 0.220431
vn 0.692903 -0.686509 0.220431
vn 0.666418 -0.717249 0.203569
vn 0.895828 -0.413468 0.162898
vn 0.998219 -0.049844 0.032782
vn 0.998567 0.053230 0.005552
vn 0.940854 -0.310748 0.135017
vn 0.940854 -0.310748 0.135017
vn 0.895828 -0.413468 0.162898
vn 0.998219 -0.049844 0.032782
vn 0.990056 0.138911 -0.022182
vn 0.998567 0.053230 0.005552
vn 0.943739 0.322695 -0.072276
vn 0.943739 0.322695 -0.072276
vn 0.943740 0.322660 -0.072419
vn 0.990056 0.138911 -0.022182
vn -0.015078 0.260160 0.965448
vn -0.015121 0.260241 0.965425
vn -0.015080 0.260163 0.965447
vn -0.015080 0.260163 0.965447
vn -0.015053 0.260095 0.965466
vn -0.015078 0.260160 0.965448
vn 0.330248 -0.910078 0.250388
vn -0.067217 -0.952640 0.296577
vn -0.073494 -0.954959 0.287492
vn -0.073494 -0.954959 0.287492
vn 0.330357 -0.910046 0.250362
vn 0.330248 -0.910078 0.250388
vn -0.067217 -0.952640 0.296577
vn -0.518012 -0.817431 0.251934
vn -0.414308 -0.866086 0.279720
vn -0.414308 -0.866086 0.279720
vn -0.073494 -0.954959 0.287492
vn -0.067217 -0.952640 0.296577
vn -0.518012 -0.817431 0.251934
vn -0.811775 -0.565910 0.144108
vn -0.745067 -0.645955 0.166187
vn -0.745067 -0.645955 0.166187
vn -0.414308 -0.866086 0.279720
vn -0.518012 -0.817431 0.251934
vn 0.273912 -0.640426 0.717514
vn 0.273919 -0.640442 0.717497
vn 0.310551 -0.789737 0.529031
vn 0.310551 -0.789737 0.529031
vn 0.310526 -0.789689 0.529117
vn 0.273912 -0.640426 0.717514
vn 0.172234 -0.293188 0.940413
vn 0.170663 -0.291812 0.941127
vn 0.273919 -0.640442 0.717497
vn 0.273919 -0.640442 0.717497
vn 0.273912 -0.640426 0.717514
vn 0.172234 -0.293188 0.940413
vn 0.170663 -0.291812 0.941127
vn 0.128968 -0.132377 0.982774
vn 0.079146 -0.086146 0.993134
vn 0.116046 -0.111463 0.986970
vn 0.128968 -0.132377 0.982774
vn 0.170663 -0.291812 0.941127
vn 0.170663 -0.291812 0.941127
vn 0.172234 -0.293188 0.940413
vn 0.116046 -0.111463 0.986970
vn 0.998567 0.053230 0.005552
vn 0.998219 -0.049844 0.032782
vn 0.943739 0.322717 -0.072178
vn 0.943739 0.322717 -0.072178
vn 0.943739 0.322695 -0.072276
vn 0.998567 0.053230 0.005552
vn 0.943739 0.322717 -0.072178
vn 0.744937 0.647865 -0.159184
vn 0.811694 0.568018 -0.136046
vn 0.811694 0.568018 -0.136046
vn 0.943739 0.322695 -0.072276
vn 0.943739 0.322717 -0.072178
vn -0.998694 -0.051033 0.002436
vn -0.998332 0.051695 -0.025716
vn -0.943729 -0.322732 0.072240
vn -0.943729 -0.322732 0.072240
vn -0.943722 -0.322762 0.072210
vn -0.998694 -0.051033 0.002436
vn -0.943729 -0.322732 0.072240
vn -0.745067 -0.645955 0.166187
vn -0.811775 -0.565910 0.144108
vn -0.811775 -0.565910 0.144108
vn -0.943722 -0.322762 0.072210
vn -0.943729 -0.322732 0.072240
vn 0.015097 -0.260136 -0.965454
vn 0.015112 -0.260038 -0.965480
vn 0.015276 -0.259707 -0.965567
vn 0.015044 -0.260094 -0.965466
vn 0.014827 -0.259988 -0.965498
vn 0.014938 -0.260039 -0.965483
vn 0.015097 -0.260136 -0.965454
vn 0.015028 -0.260330 -0.965403
vn 0.015112 -0.260038 -0.965480
vn 0.015044 -0.260094 -0.965466
vn 0.014938 -0.260039 -0.965483
vn 0.014980 -0.260067 -0.965474
vn 0.015097 -0.260136 -0.965454
vn 0.015033 -0.260077 -0.965471
vn 0.015028 -0.260330 -0.965403
vn 0.015097 -0.260136 -0.965454
vn 0.015083 -0.260165 -0.965446
vn 0.015043 -0.260032 -0.965483
vn 0.015043 -0.260032 -0.965483
vn 0.015033 -0.260077 -0.965471
vn 0.015097 -0.260136 -0.965454
vn 0.015081 -0.260137 -0.965454
vn 0.015063 -0.260123 -0.965458
vn 0.015083 -0.260165 -0.965446
vn 0.015083 -0.260165 -0.965446
vn 0.015097 -0.260136 -0.965454
vn 0.015081 -0.260137 -0.965454
vn 0.015081 -0.260137 -0.965454
vn 0.015044 -0.260094 -0.965466
vn 0.015061 -0.260092 -0.965466
vn 0.015061 -0.260092 -0.965466
vn 0.015063 -0.260123 -0.965458
vn 0.015081 -0.260137 -0.965454
vn 0.015044 -0.260094 -0.965466
vn 0.014980 -0.260067 -0.965474
vn 0.015078 -0.260170 -0.965445
vn 0.015116 -0.260218 -0.965432
vn 0.015061 -0.260092 -0.965466
vn 0.015044 -0.260094 -0.965466
vn 0.015044 -0.260094 -0.965466
vn 0.015078 -0.260170 -0.965445
vn 0.015116 -0.260218 -0.965432
s off
g SM_Defibulator_01a
f 74/8/1 81/16/2 68/17/3
f 21/3/4 19/4/5 40/1/6
f 40/1/7 47/2/8 21/3/9
f 55/26/10 40/27/11 19/28/12
f 19/28/13 82/25/14 55/26/15
f 11/14/16 48/23/17 49/24/18
f 49/24/19 10/13/20 11/14/21
f 45/45/22 50/46/23 13/47/24
f 13/47/25 18/48/26 45/45/27
f 3/6/28 1/7/29 46/9/30
f 46/9/31 8/5/32 3/6/33
f 76/30/34 36/36/35 7/63/36
f 7/63/37 79/29/38 76/30/39
f 7/242/40 54/64/41 95/65/42
f 95/65/43 79/241/44 7/242/45
f 46/66/46 45/67/47 8/68/48
f 58/70/49 92/71/50 9/81/51
f 9/81/52 4/69/53 58/70/54
f 12/83/55 66/84/56 59/85/57
f 59/85/58 3/82/59 12/83/60
f 8/68/61 63/86/62 66/84/63
f 66/84/64 12/83/65 8/68/66
f 13/47/67 50/46/68 48/23/69
f 48/23/70 11/14/71 13/47/72
f 14/87/73 68/17/74 69/88/75
f 69/88/76 15/89/77 14/87/78
f 69/88/79 70/90/80 16/91/81
f 16/91/82 15/89/83 69/88/84
f 17/92/85 71/93/86 72/94/87
f 72/94/88 18/99/89 17/92/90
f 19/28/91 34/100/92 76/30/93
f 76/30/94 82/25/95 19/28/96
f 76/30/97 78/101/98 82/25/99
f 6/10/100 19/4/101 21/3/102
f 21/3/103 5/11/104 6/10/105
f 60/102/106 47/103/107 40/27/108
f 40/27/109 55/26/110 60/102/111
f 9/12/112 5/11/113 21/3/114
f 21/3/115 20/15/116 9/12/117
f 97/104/118 98/105/119 95/65/120
f 95/65/121 54/64/122 97/104/123
f 24/39/124 25/40/125 22/37/126
f 22/37/127 23/38/128 24/39/129
f 24/39/130 23/38/131 26/41/132
f 26/41/133 27/42/134 24/39/135
f 27/42/136 26/41/137 28/43/138
f 28/43/139 29/44/140 27/42/141
f 29/44/142 28/43/143 30/49/144
f 30/49/145 31/50/146 29/44/147
f 31/50/148 30/49/149 32/51/150
f 32/51/151 33/52/152 31/50/153
f 33/57/154 24/58/155 27/55/156
f 27/55/157 29/56/158 33/57/159
f 32/51/160 36/54/161 35/53/162
f 35/53/163 33/52/164 32/51/165
f 30/106/166 7/63/167 32/107/168
f 7/63/169 36/36/170 32/107/171
f 23/108/172 22/109/173 34/100/174
f 31/59/175 33/57/176 29/56/177
f 24/58/178 33/57/179 35/60/180
f 35/60/181 25/61/182 24/58/183
f 19/28/184 6/112/185 37/110/186
f 37/110/187 38/111/188 19/28/189
f 34/100/190 28/113/191 26/114/192
f 34/100/193 26/114/194 23/108/195
f 7/63/196 30/106/197 28/113/198
f 34/97/199 53/98/200 54/95/201
f 54/95/202 7/96/203 34/97/204
f 21/115/205 39/116/206 20/117/207
f 2/119/208 20/117/209 39/116/210
f 39/116/211 41/118/212 2/119/213
f 43/122/214 44/123/215 1/120/216
f 1/120/217 42/121/218 43/122/219
f 46/66/220 44/123/221 43/122/222
f 43/122/223 45/67/224 46/66/225
f 8/68/226 45/67/227 18/99/228
f 47/103/229 60/102/230 74/8/231
f 74/8/232 21/115/233 47/103/234
f 19/28/235 38/111/236 34/100/237
f 4/18/238 9/12/239 20/15/240
f 20/15/241 2/19/242 4/18/243
f 39/140/244 14/157/245 10/158/246
f 10/158/247 49/139/248 39/140/249
f 14/143/250 15/144/251 11/141/252
f 11/141/253 10/142/254 14/143/255
f 11/141/256 15/144/257 16/145/258
f 16/145/259 13/146/260 11/141/261
f 50/32/262 45/33/263 43/22/264
f 43/22/265 42/31/266 50/32/267
f 41/72/268 39/73/269 49/34/270
f 49/34/271 48/35/272 41/72/273
f 44/20/274 46/9/275 1/7/276
f 3/6/277 8/5/278 12/21/279
f 4/18/280 2/19/281 1/7/282
f 1/7/283 3/6/284 4/18/285
f 3/82/286 59/85/287 58/70/288
f 58/70/289 4/69/290 3/82/291
f 16/91/292 70/90/293 71/93/294
f 71/93/295 17/92/296 16/91/297
f 42/121/298 1/120/299 2/119/300
f 2/119/301 41/118/302 42/121/303
f 13/146/304 16/145/305 17/147/306
f 17/147/307 18/148/308 13/146/309
f 48/35/310 50/32/311 42/31/312
f 42/31/313 41/72/314 48/35/315
f 97/104/316 5/124/317 9/81/318
f 9/81/319 96/125/320 97/104/321
f 51/167/322 52/168/323 38/165/324
f 38/165/325 37/166/326 51/167/327
f 52/171/328 53/172/329 34/169/330
f 34/169/331 38/170/332 52/171/333
f 54/185/334 53/186/335 52/183/336
f 52/183/337 51/184/338 54/185/339
f 5/124/340 51/126/341 37/243/342
f 37/243/343 6/244/344 5/124/345
f 51/126/346 5/124/347 97/104/348
f 54/64/349 51/126/350 97/104/351
f 55/173/352 82/174/353 60/175/354
f 89/198/355 90/199/356 64/200/357
f 64/200/358 65/201/359 89/198/360
f 67/207/361 91/208/362 88/209/363
f 88/209/364 72/202/365 67/207/366
f 61/176/367 62/177/368 60/175/369
f 60/175/370 82/174/371 61/176/372
f 63/86/373 88/127/374 87/128/375
f 67/207/376 64/200/377 90/199/378
f 90/199/379 91/208/380 67/207/381
f 73/178/382 74/179/383 92/180/384
f 62/177/385 92/180/386 74/179/387
f 74/179/388 60/175/389 62/177/390
f 57/182/391 59/187/392 63/188/393
f 63/188/394 87/181/395 57/182/396
f 78/101/397 77/130/398 61/129/399
f 61/129/400 82/25/401 78/101/402
f 76/204/403 79/205/404 95/206/405
f 95/206/406 80/203/407 76/204/408
f 73/131/409 81/16/410 74/8/411
f 56/132/412 83/133/413 81/16/414
f 81/16/415 73/131/416 56/132/417
f 85/136/418 86/137/419 57/134/420
f 57/134/421 84/135/422 85/136/423
f 87/128/424 88/127/425 85/136/426
f 85/136/427 84/135/428 87/128/429
f 63/86/430 72/94/431 88/127/432
f 56/189/433 73/178/434 92/180/435
f 92/180/436 58/190/437 56/189/438
f 65/62/439 68/74/440 81/75/441
f 81/75/442 89/76/443 65/62/444
f 68/220/445 65/221/446 64/218/447
f 64/218/448 69/219/449 68/220/450
f 64/218/451 67/223/452 70/222/453
f 70/222/454 69/219/455 64/218/456
f 91/159/457 86/160/458 85/155/459
f 85/155/460 88/156/461 91/159/462
f 83/163/463 90/164/464 89/161/465
f 89/161/466 81/162/467 83/163/468
f 84/192/469 57/182/470 87/181/471
f 59/187/472 66/193/473 63/188/474
f 59/187/475 57/182/476 56/189/477
f 56/189/478 58/190/479 59/187/480
f 86/137/481 83/133/482 56/132/483
f 56/132/484 57/134/485 86/137/486
f 67/223/487 72/225/488 71/224/489
f 71/224/490 70/222/491 67/223/492
f 90/164/493 83/163/494 86/160/495
f 86/160/496 91/159/497 90/164/498
f 92/71/499 62/149/500 98/105/501
f 98/105/502 75/138/503 92/71/504
f 78/77/505 94/78/506 93/79/507
f 93/79/508 77/80/509 78/77/510
f 94/196/511 78/197/512 76/194/513
f 76/194/514 80/195/515 94/196/516
f 94/210/517 80/211/518 95/212/519
f 95/212/520 93/213/521 94/210/522
f 62/149/523 61/245/524 77/246/525
f 77/246/526 93/150/527 62/149/528
f 93/150/529 98/105/530 62/149/531
f 95/65/532 98/105/533 93/150/534
f 35/236/535 36/237/536 22/234/537
f 22/234/538 25/235/539 35/236/540
f 34/100/541 22/109/542 76/30/543
f 36/36/544 76/30/545 22/109/546
f 9/81/547 92/71/548 75/138/549
f 75/138/550 96/125/551 9/81/552
f 72/94/553 63/86/554 8/68/555
f 8/68/556 18/99/557 72/94/558
f 68/17/559 14/87/560 21/115/561
f 21/115/562 74/8/563 68/17/564
f 14/87/565 39/116/566 21/115/567
f 75/214/568 98/215/569 102/216/570
f 102/216/571 99/217/572 75/214/573
f 96/230/574 75/231/575 99/232/576
f 99/232/577 100/233/578 96/230/579
f 98/151/580 97/152/581 101/153/582
f 101/153/583 102/154/584 98/151/585
f 97/191/586 96/238/587 100/239/588
f 100/239/589 101/240/590 97/191/591
f 101/227/592 100/228/593 99/229/594
f 99/229/595 102/226/596 101/227/597
f 28/113/598 34/100/599 7/63/600
f 106/250/601 105/252/602 104/278/603
f 104/278/604 103/247/605 106/250/606
f 107/262/607 108/299/608 109/298/609
f 109/298/610 110/266/611 107/262/612
f 112/255/613 116/264/614 111/267/615
f 111/267/616 117/254/617 112/255/618
f 121/280/619 115/283/620 114/284/621
f 114/284/622 113/279/623 121/280/624
f 116/248/625 119/249/626 120/251/627
f 117/270/628 111/271/629 104/272/630
f 104/272/631 105/273/632 117/270/633
f 119/256/634 123/265/635 124/268/636
f 124/268/637 120/253/638 119/256/639
f 113/285/640 114/286/641 109/287/642
f 109/287/643 108/288/644 113/285/645
f 124/289/646 123/290/647 121/291/648
f 112/255/649 117/254/650 114/284/651
f 114/284/652 115/283/653 112/255/654
f 117/274/655 105/275/656 109/276/657
f 109/276/658 114/277/659 117/274/660
f 105/252/661 106/250/662 110/266/663
f 110/266/664 109/298/665 105/252/666
f 116/248/667 112/259/668 118/260/669
f 116/248/670 118/260/671 119/249/672
f 106/261/673 103/263/674 116/248/675
f 116/248/676 120/251/677 106/261/678
f 103/247/679 104/278/680 111/282/681
f 111/282/682 116/281/683 103/247/684
f 112/300/685 115/301/686 122/302/687
f 122/302/688 118/269/689 112/300/690
f 118/269/691 122/302/692 123/265/693
f 123/265/694 119/256/695 118/269/696
f 124/268/697 110/303/698 106/304/699
f 106/304/700 120/253/701 124/268/702
f 108/258/703 107/294/704 121/297/705
f 121/297/706 113/257/707 108/258/708
f 122/292/709 115/293/710 121/291/711
f 123/290/712 122/292/713 121/291/714
f 107/295/715 110/296/716 124/289/717
f 124/289/718 121/291/719 107/295/720
f 161/306/721 144/307/722 142/321/723
f 142/321/724 139/322/725 161/306/726
f 130/309/727 135/310/728 134/311/729
f 134/311/730 131/308/731 130/309/732
f 132/318/733 131/308/734 134/311/735
f 134/311/736 138/328/737 132/318/738
f 133/325/739 132/318/740 138/328/741
f 138/328/742 140/324/743 133/325/744
f 141/329/745 126/330/746 160/347/747
f 160/347/748 140/324/749 141/329/750
f 126/331/751 141/332/752 142/333/753
f 142/333/754 144/351/755 126/331/756
f 135/310/757 130/309/758 129/313/759
f 129/313/760 136/312/761 135/310/762
f 136/312/763 129/313/764 128/327/765
f 128/327/766 137/315/767 136/312/768
f 137/315/769 128/327/770 162/346/771
f 162/346/772 139/322/773 137/315/774
f 141/305/775 140/314/776 139/334/777
f 139/334/778 142/335/779 141/305/780
f 140/314/781 138/336/782 137/337/783
f 137/337/784 139/334/785 140/314/786
f 138/336/787 134/338/788 135/339/789
f 136/340/790 137/337/791 138/336/792
f 138/336/793 135/339/794 136/340/795
f 145/363/796 144/307/797 161/306/798
f 161/306/799 146/348/800 145/363/801
f 148/371/802 147/368/803 150/369/804
f 150/369/805 149/370/806 148/371/807
f 151/354/808 159/350/809 150/369/810
f 150/369/811 147/368/812 151/354/813
f 153/377/814 152/349/815 159/350/816
f 159/350/817 151/354/818 153/377/819
f 154/378/820 152/349/821 160/347/822
f 160/347/823 126/330/824 154/378/825
f 145/359/826 154/360/827 126/331/828
f 126/331/829 144/351/830 145/359/831
f 149/370/832 155/380/833 156/381/834
f 156/381/835 148/371/836 149/370/837
f 155/384/838 157/364/839 158/366/840
f 158/366/841 156/383/842 155/384/843
f 157/364/844 146/348/845 143/365/846
f 143/365/847 158/366/848 157/364/849
f 146/342/850 152/343/851 154/352/852
f 154/352/853 145/341/854 146/342/855
f 157/353/856 159/356/857 152/343/858
f 152/343/859 146/342/860 157/353/861
f 159/356/862 149/357/863 150/358/864
f 155/382/865 149/357/866 159/356/867
f 159/356/868 157/353/869 155/382/870
f 152/349/871 153/377/872 125/379/873
f 125/379/874 160/347/875 152/349/876
f 125/379/877 133/325/878 140/324/879
f 140/324/880 160/347/881 125/379/882
f 139/322/883 162/346/884 127/367/885
f 127/367/886 161/306/887 139/322/888
f 127/367/889 143/365/890 146/348/891
f 146/348/892 161/306/893 127/367/894
f 143/316/895 156/317/896 158/319/897
f 162/320/898 128/323/899 129/326/900
f 143/316/901 148/344/902 156/317/903
f 162/320/904 129/326/905 130/345/906
f 143/316/907 147/355/908 148/344/909
f 143/316/910 153/361/911 151/362/912
f 151/362/913 147/355/914 143/316/915
f 127/372/916 125/373/917 153/361/918
f 153/361/919 143/316/920 127/372/921
f 127/372/922 162/320/923 133/374/924
f 133/374/925 125/373/926 127/372/927
f 162/320/928 130/345/929 131/375/930
f 132/376/931 133/374/932 162/320/933
f 162/320/934 131/375/935 132/376/936
f 163/385/937 164/386/938 166/388/939
f 166/388/940 165/387/941 163/385/942
f 165/387/943 166/388/944 168/390/945
f 168/390/946 167/389/947 165/387/948
f 167/389/949 168/390/950 170/392/951
f 170/392/952 169/391/953 167/389/954
f 171/393/955 169/391/956 170/392/957
f 170/392/958 172/394/959 171/393/960
f 173/395/961 174/396/962 175/397/963
f 175/397/964 176/398/965 173/395/966
f 177/399/967 178/400/968 179/401/969
f 179/401/970 180/402/971 177/399/972
f 181/403/973 180/402/974 179/401/975
f 179/401/976 182/404/977 181/403/978
f 183/405/979 181/403/980 182/404/981
f 182/404/982 184/406/983 183/405/984
f 185/407/985 186/408/986 187/409/987
f 187/409/988 184/406/989 185/407/990
f 186/410/991 185/411/992 175/412/993
f 175/412/994 174/413/995 186/410/996
f 178/400/997 177/399/998 188/414/999
f 188/414/1000 189/415/1001 178/400/1002
f 189/415/1003 188/414/1004 190/416/1005
f 190/416/1006 191/417/1007 189/415/1008
f 191/417/1009 190/416/1010 192/418/1011
f 192/418/1012 176/398/1013 191/417/1014
f 185/419/1015 184/420/1016 176/421/1017
f 176/421/1018 175/422/1019 185/419/1020
f 184/420/1021 182/423/1022 191/424/1023
f 191/424/1024 176/421/1025 184/420/1026
f 182/423/1027 179/425/1028 178/426/1029
f 189/427/1030 191/424/1031 182/423/1032
f 182/423/1033 178/426/1034 189/427/1035
f 193/428/1036 174/396/1037 173/395/1038
f 173/395/1039 194/429/1040 193/428/1041
f 195/430/1042 196/431/1043 197/432/1044
f 197/432/1045 198/433/1046 195/430/1047
f 199/434/1048 200/435/1049 197/432/1050
f 197/432/1051 196/431/1052 199/434/1053
f 201/436/1054 202/437/1055 200/435/1056
f 200/435/1057 199/434/1058 201/436/1059
f 203/438/1060 202/437/1061 187/409/1062
f 187/409/1063 186/408/1064 203/438/1065
f 193/439/1066 203/440/1067 186/410/1068
f 186/410/1069 174/413/1070 193/439/1071
f 198/433/1072 204/441/1073 205/442/1074
f 205/442/1075 195/430/1076 198/433/1077
f 204/443/1078 206/444/1079 207/445/1080
f 207/445/1081 205/446/1082 204/443/1083
f 206/444/1084 194/429/1085 208/447/1086
f 208/447/1087 207/445/1088 206/444/1089
f 194/448/1090 202/449/1091 203/450/1092
f 203/450/1093 193/451/1094 194/448/1095
f 206/452/1096 200/453/1097 202/449/1098
f 202/449/1099 194/448/1100 206/452/1101
f 200/453/1102 198/454/1103 197/455/1104
f 204/456/1105 198/454/1106 200/453/1107
f 200/453/1108 206/452/1109 204/456/1110
f 202/437/1111 201/436/1112 209/457/1113
f 209/457/1114 187/409/1115 202/437/1116
f 209/457/1117 183/405/1118 184/406/1119
f 184/406/1120 187/409/1121 209/457/1122
f 176/398/1123 192/418/1124 210/458/1125
f 210/458/1126 173/395/1127 176/398/1128
f 210/458/1129 208/447/1130 194/429/1131
f 194/429/1132 173/395/1133 210/458/1134
f 208/459/1135 205/460/1136 207/461/1137
f 192/462/1138 190/463/1139 188/464/1140
f 208/459/1141 195/465/1142 205/460/1143
f 192/462/1144 188/464/1145 177/466/1146
f 208/459/1147 196/467/1148 195/465/1149
f 208/459/1150 201/468/1151 199/469/1152
f 199/469/1153 196/467/1154 208/459/1155
f 210/470/1156 209/471/1157 201/468/1158
f 201/468/1159 208/459/1160 210/470/1161
f 210/470/1162 192/462/1163 183/472/1164
f 183/472/1165 209/471/1166 210/470/1167
f 192/462/1168 177/466/1169 180/473/1170
f 181/474/1171 183/472/1172 192/462/1173
f 192/462/1174 180/473/1175 181/474/1176
f 211/475/1177 212/476/1178 213/477/1179
f 213/477/1180 214/478/1181 211/475/1182
f 215/479/1183 216/480/1184 217/481/1185
f 217/481/1186 218/482/1187 215/479/1188
f 219/483/1189 218/482/1190 217/481/1191
f 217/481/1192 220/484/1193 219/483/1194
f 221/485/1195 219/483/1196 220/484/1197
f 220/484/1198 222/486/1199 221/485/1200
f 223/487/1201 224/488/1202 225/489/1203
f 225/489/1204 222/486/1205 223/487/1206
f 224/490/1207 223/491/1208 213/492/1209
f 213/492/1210 212/493/1211 224/490/1212
f 216/480/1213 215/479/1214 226/494/1215
f 226/494/1216 227/495/1217 216/480/1218
f 227/495/1219 226/494/1220 228/496/1221
f 228/496/1222 229/497/1223 227/495/1224
f 229/497/1225 228/496/1226 230/498/1227
f 230/498/1228 214/478/1229 229/497/1230
f 223/499/1231 222/500/1232 214/501/1233
f 214/501/1234 213/502/1235 223/499/1236
f 222/500/1237 220/503/1238 229/504/1239
f 229/504/1240 214/501/1241 222/500/1242
f 220/503/1243 217/505/1244 216/506/1245
f 227/507/1246 229/504/1247 220/503/1248
f 220/503/1249 216/506/1250 227/507/1251
f 231/508/1252 212/476/1253 211/475/1254
f 211/475/1255 232/509/1256 231/508/1257
f 233/510/1258 234/511/1259 235/512/1260
f 235/512/1261 236/513/1262 233/510/1263
f 237/514/1264 238/515/1265 235/512/1266
f 235/512/1267 234/511/1268 237/514/1269
f 239/516/1270 240/517/1271 238/515/1272
f 238/515/1273 237/514/1274 239/516/1275
f 241/518/1276 240/517/1277 225/489/1278
f 225/489/1279 224/488/1280 241/518/1281
f 231/519/1282 241/520/1283 224/490/1284
f 224/490/1285 212/493/1286 231/519/1287
f 236/513/1288 242/521/1289 243/522/1290
f 243/522/1291 233/510/1292 236/513/1293
f 242/523/1294 244/524/1295 245/525/1296
f 245/525/1297 243/526/1298 242/523/1299
f 244/524/1300 232/509/1301 246/527/1302
f 246/527/1303 245/525/1304 244/524/1305
f 232/528/1306 240/529/1307 241/530/1308
f 241/530/1309 231/531/1310 232/528/1311
f 244/532/1312 238/533/1313 240/529/1314
f 240/529/1315 232/528/1316 244/532/1317
f 238/533/1318 236/534/1319 235/535/1320
f 242/536/1321 236/534/1322 238/533/1323
f 238/533/1324 244/532/1325 242/536/1326
f 240/517/1327 239/516/1328 247/537/1329
f 247/537/1330 225/489/1331 240/517/1332
f 247/537/1333 221/485/1334 222/486/1335
f 222/486/1336 225/489/1337 247/537/1338
f 214/478/1339 230/498/1340 248/538/1341
f 248/538/1342 211/475/1343 214/478/1344
f 248/538/1345 246/527/1346 232/509/1347
f 232/509/1348 211/475/1349 248/538/1350
f 246/539/1351 243/540/1352 245/541/1353
f 230/542/1354 228/543/1355 226/544/1356
f 246/539/1357 233/545/1358 243/540/1359
f 230/542/1360 226/544/1361 215/546/1362
f 246/539/1363 234/547/1364 233/545/1365
f 246/539/1366 239/548/1367 237/549/1368
f 237/549/1369 234/547/1370 246/539/1371
f 248/550/1372 247/551/1373 239/548/1374
f 239/548/1375 246/539/1376 248/550/1377
f 248/550/1378 230/542/1379 221/552/1380
f 221/552/1381 247/551/1382 248/550/1383
f 230/542/1384 215/546/1385 218/553/1386
f 219/554/1387 221/552/1388 230/542/1389
f 230/542/1390 218/553/1391 219/554/1392
